(kicad_symbol_lib (version 20211014) (generator kicad_symbol_editor)
  (symbol "1054500101" (pin_names (offset 0.254)) (in_bom yes) (on_board yes)
    (property "Reference" "J1" (id 0) (at 13.97 -27.94 0)
      (effects (font (size 1.524 1.524)) (justify left))
    )
    (property "Value" "1054500101" (id 1) (at 13.97 -31.75 0)
      (effects (font (size 1.524 1.524)) (justify left))
    )
    (property "Footprint" "CONN_105450-0101_MOL" (id 2) (at 0 0 0)
      (effects (font (size 1.27 1.27) italic) hide)
    )
    (property "Datasheet" "1054500101" (id 3) (at 0 0 0)
      (effects (font (size 1.27 1.27) italic) hide)
    )
    (property "ki_locked" "" (id 4) (at 0 0 0)
      (effects (font (size 1.27 1.27)))
    )
    (property "ki_keywords" "1054500101" (id 5) (at 0 0 0)
      (effects (font (size 1.27 1.27)) hide)
    )
    (property "ki_fp_filters" "CONN_105450-0101_MOL" (id 6) (at 0 0 0)
      (effects (font (size 1.27 1.27)) hide)
    )
    (symbol "1054500101_0_1"
      (polyline
        (pts
          (xy 5.08 -60.96)
          (xy 12.7 -60.96)
        )
        (stroke (width 0.127) (type default) (color 0 0 0 0))
        (fill (type none))
      )
      (polyline
        (pts
          (xy 5.08 2.54)
          (xy 5.08 -60.96)
        )
        (stroke (width 0.127) (type default) (color 0 0 0 0))
        (fill (type none))
      )
      (polyline
        (pts
          (xy 10.16 -58.42)
          (xy 5.08 -58.42)
        )
        (stroke (width 0.127) (type default) (color 0 0 0 0))
        (fill (type none))
      )
      (polyline
        (pts
          (xy 10.16 -58.42)
          (xy 8.89 -59.2667)
        )
        (stroke (width 0.127) (type default) (color 0 0 0 0))
        (fill (type none))
      )
      (polyline
        (pts
          (xy 10.16 -58.42)
          (xy 8.89 -57.5733)
        )
        (stroke (width 0.127) (type default) (color 0 0 0 0))
        (fill (type none))
      )
      (polyline
        (pts
          (xy 10.16 -55.88)
          (xy 5.08 -55.88)
        )
        (stroke (width 0.127) (type default) (color 0 0 0 0))
        (fill (type none))
      )
      (polyline
        (pts
          (xy 10.16 -55.88)
          (xy 8.89 -56.7267)
        )
        (stroke (width 0.127) (type default) (color 0 0 0 0))
        (fill (type none))
      )
      (polyline
        (pts
          (xy 10.16 -55.88)
          (xy 8.89 -55.0333)
        )
        (stroke (width 0.127) (type default) (color 0 0 0 0))
        (fill (type none))
      )
      (polyline
        (pts
          (xy 10.16 -53.34)
          (xy 5.08 -53.34)
        )
        (stroke (width 0.127) (type default) (color 0 0 0 0))
        (fill (type none))
      )
      (polyline
        (pts
          (xy 10.16 -53.34)
          (xy 8.89 -54.1867)
        )
        (stroke (width 0.127) (type default) (color 0 0 0 0))
        (fill (type none))
      )
      (polyline
        (pts
          (xy 10.16 -53.34)
          (xy 8.89 -52.4933)
        )
        (stroke (width 0.127) (type default) (color 0 0 0 0))
        (fill (type none))
      )
      (polyline
        (pts
          (xy 10.16 -50.8)
          (xy 5.08 -50.8)
        )
        (stroke (width 0.127) (type default) (color 0 0 0 0))
        (fill (type none))
      )
      (polyline
        (pts
          (xy 10.16 -50.8)
          (xy 8.89 -51.6467)
        )
        (stroke (width 0.127) (type default) (color 0 0 0 0))
        (fill (type none))
      )
      (polyline
        (pts
          (xy 10.16 -50.8)
          (xy 8.89 -49.9533)
        )
        (stroke (width 0.127) (type default) (color 0 0 0 0))
        (fill (type none))
      )
      (polyline
        (pts
          (xy 10.16 -48.26)
          (xy 5.08 -48.26)
        )
        (stroke (width 0.127) (type default) (color 0 0 0 0))
        (fill (type none))
      )
      (polyline
        (pts
          (xy 10.16 -48.26)
          (xy 8.89 -49.1067)
        )
        (stroke (width 0.127) (type default) (color 0 0 0 0))
        (fill (type none))
      )
      (polyline
        (pts
          (xy 10.16 -48.26)
          (xy 8.89 -47.4133)
        )
        (stroke (width 0.127) (type default) (color 0 0 0 0))
        (fill (type none))
      )
      (polyline
        (pts
          (xy 10.16 -45.72)
          (xy 5.08 -45.72)
        )
        (stroke (width 0.127) (type default) (color 0 0 0 0))
        (fill (type none))
      )
      (polyline
        (pts
          (xy 10.16 -45.72)
          (xy 8.89 -46.5667)
        )
        (stroke (width 0.127) (type default) (color 0 0 0 0))
        (fill (type none))
      )
      (polyline
        (pts
          (xy 10.16 -45.72)
          (xy 8.89 -44.8733)
        )
        (stroke (width 0.127) (type default) (color 0 0 0 0))
        (fill (type none))
      )
      (polyline
        (pts
          (xy 10.16 -43.18)
          (xy 5.08 -43.18)
        )
        (stroke (width 0.127) (type default) (color 0 0 0 0))
        (fill (type none))
      )
      (polyline
        (pts
          (xy 10.16 -43.18)
          (xy 8.89 -44.0267)
        )
        (stroke (width 0.127) (type default) (color 0 0 0 0))
        (fill (type none))
      )
      (polyline
        (pts
          (xy 10.16 -43.18)
          (xy 8.89 -42.3333)
        )
        (stroke (width 0.127) (type default) (color 0 0 0 0))
        (fill (type none))
      )
      (polyline
        (pts
          (xy 10.16 -40.64)
          (xy 5.08 -40.64)
        )
        (stroke (width 0.127) (type default) (color 0 0 0 0))
        (fill (type none))
      )
      (polyline
        (pts
          (xy 10.16 -40.64)
          (xy 8.89 -41.4867)
        )
        (stroke (width 0.127) (type default) (color 0 0 0 0))
        (fill (type none))
      )
      (polyline
        (pts
          (xy 10.16 -40.64)
          (xy 8.89 -39.7933)
        )
        (stroke (width 0.127) (type default) (color 0 0 0 0))
        (fill (type none))
      )
      (polyline
        (pts
          (xy 10.16 -38.1)
          (xy 5.08 -38.1)
        )
        (stroke (width 0.127) (type default) (color 0 0 0 0))
        (fill (type none))
      )
      (polyline
        (pts
          (xy 10.16 -38.1)
          (xy 8.89 -38.9467)
        )
        (stroke (width 0.127) (type default) (color 0 0 0 0))
        (fill (type none))
      )
      (polyline
        (pts
          (xy 10.16 -38.1)
          (xy 8.89 -37.2533)
        )
        (stroke (width 0.127) (type default) (color 0 0 0 0))
        (fill (type none))
      )
      (polyline
        (pts
          (xy 10.16 -35.56)
          (xy 5.08 -35.56)
        )
        (stroke (width 0.127) (type default) (color 0 0 0 0))
        (fill (type none))
      )
      (polyline
        (pts
          (xy 10.16 -35.56)
          (xy 8.89 -36.4067)
        )
        (stroke (width 0.127) (type default) (color 0 0 0 0))
        (fill (type none))
      )
      (polyline
        (pts
          (xy 10.16 -35.56)
          (xy 8.89 -34.7133)
        )
        (stroke (width 0.127) (type default) (color 0 0 0 0))
        (fill (type none))
      )
      (polyline
        (pts
          (xy 10.16 -33.02)
          (xy 5.08 -33.02)
        )
        (stroke (width 0.127) (type default) (color 0 0 0 0))
        (fill (type none))
      )
      (polyline
        (pts
          (xy 10.16 -33.02)
          (xy 8.89 -33.8667)
        )
        (stroke (width 0.127) (type default) (color 0 0 0 0))
        (fill (type none))
      )
      (polyline
        (pts
          (xy 10.16 -33.02)
          (xy 8.89 -32.1733)
        )
        (stroke (width 0.127) (type default) (color 0 0 0 0))
        (fill (type none))
      )
      (polyline
        (pts
          (xy 10.16 -30.48)
          (xy 5.08 -30.48)
        )
        (stroke (width 0.127) (type default) (color 0 0 0 0))
        (fill (type none))
      )
      (polyline
        (pts
          (xy 10.16 -30.48)
          (xy 8.89 -31.3267)
        )
        (stroke (width 0.127) (type default) (color 0 0 0 0))
        (fill (type none))
      )
      (polyline
        (pts
          (xy 10.16 -30.48)
          (xy 8.89 -29.6333)
        )
        (stroke (width 0.127) (type default) (color 0 0 0 0))
        (fill (type none))
      )
      (polyline
        (pts
          (xy 10.16 -27.94)
          (xy 5.08 -27.94)
        )
        (stroke (width 0.127) (type default) (color 0 0 0 0))
        (fill (type none))
      )
      (polyline
        (pts
          (xy 10.16 -27.94)
          (xy 8.89 -28.7867)
        )
        (stroke (width 0.127) (type default) (color 0 0 0 0))
        (fill (type none))
      )
      (polyline
        (pts
          (xy 10.16 -27.94)
          (xy 8.89 -27.0933)
        )
        (stroke (width 0.127) (type default) (color 0 0 0 0))
        (fill (type none))
      )
      (polyline
        (pts
          (xy 10.16 -25.4)
          (xy 5.08 -25.4)
        )
        (stroke (width 0.127) (type default) (color 0 0 0 0))
        (fill (type none))
      )
      (polyline
        (pts
          (xy 10.16 -25.4)
          (xy 8.89 -26.2467)
        )
        (stroke (width 0.127) (type default) (color 0 0 0 0))
        (fill (type none))
      )
      (polyline
        (pts
          (xy 10.16 -25.4)
          (xy 8.89 -24.5533)
        )
        (stroke (width 0.127) (type default) (color 0 0 0 0))
        (fill (type none))
      )
      (polyline
        (pts
          (xy 10.16 -22.86)
          (xy 5.08 -22.86)
        )
        (stroke (width 0.127) (type default) (color 0 0 0 0))
        (fill (type none))
      )
      (polyline
        (pts
          (xy 10.16 -22.86)
          (xy 8.89 -23.7067)
        )
        (stroke (width 0.127) (type default) (color 0 0 0 0))
        (fill (type none))
      )
      (polyline
        (pts
          (xy 10.16 -22.86)
          (xy 8.89 -22.0133)
        )
        (stroke (width 0.127) (type default) (color 0 0 0 0))
        (fill (type none))
      )
      (polyline
        (pts
          (xy 10.16 -20.32)
          (xy 5.08 -20.32)
        )
        (stroke (width 0.127) (type default) (color 0 0 0 0))
        (fill (type none))
      )
      (polyline
        (pts
          (xy 10.16 -20.32)
          (xy 8.89 -21.1667)
        )
        (stroke (width 0.127) (type default) (color 0 0 0 0))
        (fill (type none))
      )
      (polyline
        (pts
          (xy 10.16 -20.32)
          (xy 8.89 -19.4733)
        )
        (stroke (width 0.127) (type default) (color 0 0 0 0))
        (fill (type none))
      )
      (polyline
        (pts
          (xy 10.16 -17.78)
          (xy 5.08 -17.78)
        )
        (stroke (width 0.127) (type default) (color 0 0 0 0))
        (fill (type none))
      )
      (polyline
        (pts
          (xy 10.16 -17.78)
          (xy 8.89 -18.6267)
        )
        (stroke (width 0.127) (type default) (color 0 0 0 0))
        (fill (type none))
      )
      (polyline
        (pts
          (xy 10.16 -17.78)
          (xy 8.89 -16.9333)
        )
        (stroke (width 0.127) (type default) (color 0 0 0 0))
        (fill (type none))
      )
      (polyline
        (pts
          (xy 10.16 -15.24)
          (xy 5.08 -15.24)
        )
        (stroke (width 0.127) (type default) (color 0 0 0 0))
        (fill (type none))
      )
      (polyline
        (pts
          (xy 10.16 -15.24)
          (xy 8.89 -16.0867)
        )
        (stroke (width 0.127) (type default) (color 0 0 0 0))
        (fill (type none))
      )
      (polyline
        (pts
          (xy 10.16 -15.24)
          (xy 8.89 -14.3933)
        )
        (stroke (width 0.127) (type default) (color 0 0 0 0))
        (fill (type none))
      )
      (polyline
        (pts
          (xy 10.16 -12.7)
          (xy 5.08 -12.7)
        )
        (stroke (width 0.127) (type default) (color 0 0 0 0))
        (fill (type none))
      )
      (polyline
        (pts
          (xy 10.16 -12.7)
          (xy 8.89 -13.5467)
        )
        (stroke (width 0.127) (type default) (color 0 0 0 0))
        (fill (type none))
      )
      (polyline
        (pts
          (xy 10.16 -12.7)
          (xy 8.89 -11.8533)
        )
        (stroke (width 0.127) (type default) (color 0 0 0 0))
        (fill (type none))
      )
      (polyline
        (pts
          (xy 10.16 -10.16)
          (xy 5.08 -10.16)
        )
        (stroke (width 0.127) (type default) (color 0 0 0 0))
        (fill (type none))
      )
      (polyline
        (pts
          (xy 10.16 -10.16)
          (xy 8.89 -11.0067)
        )
        (stroke (width 0.127) (type default) (color 0 0 0 0))
        (fill (type none))
      )
      (polyline
        (pts
          (xy 10.16 -10.16)
          (xy 8.89 -9.3133)
        )
        (stroke (width 0.127) (type default) (color 0 0 0 0))
        (fill (type none))
      )
      (polyline
        (pts
          (xy 10.16 -7.62)
          (xy 5.08 -7.62)
        )
        (stroke (width 0.127) (type default) (color 0 0 0 0))
        (fill (type none))
      )
      (polyline
        (pts
          (xy 10.16 -7.62)
          (xy 8.89 -8.4667)
        )
        (stroke (width 0.127) (type default) (color 0 0 0 0))
        (fill (type none))
      )
      (polyline
        (pts
          (xy 10.16 -7.62)
          (xy 8.89 -6.7733)
        )
        (stroke (width 0.127) (type default) (color 0 0 0 0))
        (fill (type none))
      )
      (polyline
        (pts
          (xy 10.16 -5.08)
          (xy 5.08 -5.08)
        )
        (stroke (width 0.127) (type default) (color 0 0 0 0))
        (fill (type none))
      )
      (polyline
        (pts
          (xy 10.16 -5.08)
          (xy 8.89 -5.9267)
        )
        (stroke (width 0.127) (type default) (color 0 0 0 0))
        (fill (type none))
      )
      (polyline
        (pts
          (xy 10.16 -5.08)
          (xy 8.89 -4.2333)
        )
        (stroke (width 0.127) (type default) (color 0 0 0 0))
        (fill (type none))
      )
      (polyline
        (pts
          (xy 10.16 -2.54)
          (xy 5.08 -2.54)
        )
        (stroke (width 0.127) (type default) (color 0 0 0 0))
        (fill (type none))
      )
      (polyline
        (pts
          (xy 10.16 -2.54)
          (xy 8.89 -3.3867)
        )
        (stroke (width 0.127) (type default) (color 0 0 0 0))
        (fill (type none))
      )
      (polyline
        (pts
          (xy 10.16 -2.54)
          (xy 8.89 -1.6933)
        )
        (stroke (width 0.127) (type default) (color 0 0 0 0))
        (fill (type none))
      )
      (polyline
        (pts
          (xy 10.16 0)
          (xy 5.08 0)
        )
        (stroke (width 0.127) (type default) (color 0 0 0 0))
        (fill (type none))
      )
      (polyline
        (pts
          (xy 10.16 0)
          (xy 8.89 -0.8467)
        )
        (stroke (width 0.127) (type default) (color 0 0 0 0))
        (fill (type none))
      )
      (polyline
        (pts
          (xy 10.16 0)
          (xy 8.89 0.8467)
        )
        (stroke (width 0.127) (type default) (color 0 0 0 0))
        (fill (type none))
      )
      (polyline
        (pts
          (xy 12.7 -60.96)
          (xy 12.7 2.54)
        )
        (stroke (width 0.127) (type default) (color 0 0 0 0))
        (fill (type none))
      )
      (polyline
        (pts
          (xy 12.7 2.54)
          (xy 5.08 2.54)
        )
        (stroke (width 0.127) (type default) (color 0 0 0 0))
        (fill (type none))
      )
      (pin passive line (at 0 0 0) (length 5.08)
        (name "A1" (effects (font (size 1.27 1.27))))
        (number "A1" (effects (font (size 1.27 1.27))))
      )
      (pin passive line (at 0 -22.86 0) (length 5.08)
        (name "A10" (effects (font (size 1.27 1.27))))
        (number "A10" (effects (font (size 1.27 1.27))))
      )
      (pin passive line (at 0 -25.4 0) (length 5.08)
        (name "A11" (effects (font (size 1.27 1.27))))
        (number "A11" (effects (font (size 1.27 1.27))))
      )
      (pin passive line (at 0 -27.94 0) (length 5.08)
        (name "A12" (effects (font (size 1.27 1.27))))
        (number "A12" (effects (font (size 1.27 1.27))))
      )
      (pin passive line (at 0 -2.54 0) (length 5.08)
        (name "A2" (effects (font (size 1.27 1.27))))
        (number "A2" (effects (font (size 1.27 1.27))))
      )
      (pin passive line (at 0 -5.08 0) (length 5.08)
        (name "A3" (effects (font (size 1.27 1.27))))
        (number "A3" (effects (font (size 1.27 1.27))))
      )
      (pin power_out line (at 0 -7.62 0) (length 5.08)
        (name "A4" (effects (font (size 1.27 1.27))))
        (number "A4" (effects (font (size 1.27 1.27))))
      )
      (pin passive line (at 0 -10.16 0) (length 5.08)
        (name "A5" (effects (font (size 1.27 1.27))))
        (number "A5" (effects (font (size 1.27 1.27))))
      )
      (pin passive line (at 0 -12.7 0) (length 5.08)
        (name "A6" (effects (font (size 1.27 1.27))))
        (number "A6" (effects (font (size 1.27 1.27))))
      )
      (pin passive line (at 0 -15.24 0) (length 5.08)
        (name "A7" (effects (font (size 1.27 1.27))))
        (number "A7" (effects (font (size 1.27 1.27))))
      )
      (pin passive line (at 0 -17.78 0) (length 5.08)
        (name "A8" (effects (font (size 1.27 1.27))))
        (number "A8" (effects (font (size 1.27 1.27))))
      )
      (pin passive line (at 0 -20.32 0) (length 5.08)
        (name "A9" (effects (font (size 1.27 1.27))))
        (number "A9" (effects (font (size 1.27 1.27))))
      )
      (pin passive line (at 0 -30.48 0) (length 5.08)
        (name "B1" (effects (font (size 1.27 1.27))))
        (number "B1" (effects (font (size 1.27 1.27))))
      )
      (pin passive line (at 0 -53.34 0) (length 5.08)
        (name "B10" (effects (font (size 1.27 1.27))))
        (number "B10" (effects (font (size 1.27 1.27))))
      )
      (pin passive line (at 0 -55.88 0) (length 5.08)
        (name "B11" (effects (font (size 1.27 1.27))))
        (number "B11" (effects (font (size 1.27 1.27))))
      )
      (pin power_out line (at 0 -58.42 0) (length 5.08)
        (name "B12" (effects (font (size 1.27 1.27))))
        (number "B12" (effects (font (size 1.27 1.27))))
      )
      (pin passive line (at 0 -33.02 0) (length 5.08)
        (name "B2" (effects (font (size 1.27 1.27))))
        (number "B2" (effects (font (size 1.27 1.27))))
      )
      (pin passive line (at 0 -35.56 0) (length 5.08)
        (name "B3" (effects (font (size 1.27 1.27))))
        (number "B3" (effects (font (size 1.27 1.27))))
      )
      (pin passive line (at 0 -38.1 0) (length 5.08)
        (name "B4" (effects (font (size 1.27 1.27))))
        (number "B4" (effects (font (size 1.27 1.27))))
      )
      (pin passive line (at 0 -40.64 0) (length 5.08)
        (name "B5" (effects (font (size 1.27 1.27))))
        (number "B5" (effects (font (size 1.27 1.27))))
      )
      (pin passive line (at 0 -43.18 0) (length 5.08)
        (name "B6" (effects (font (size 1.27 1.27))))
        (number "B6" (effects (font (size 1.27 1.27))))
      )
      (pin passive line (at 0 -45.72 0) (length 5.08)
        (name "B7" (effects (font (size 1.27 1.27))))
        (number "B7" (effects (font (size 1.27 1.27))))
      )
      (pin passive line (at 0 -48.26 0) (length 5.08)
        (name "B8" (effects (font (size 1.27 1.27))))
        (number "B8" (effects (font (size 1.27 1.27))))
      )
      (pin passive line (at 0 -50.8 0) (length 5.08)
        (name "B9" (effects (font (size 1.27 1.27))))
        (number "B9" (effects (font (size 1.27 1.27))))
      )
    )
  )
)
