%TF.GenerationSoftware,KiCad,Pcbnew,7.0.9-7.0.9~ubuntu22.04.1*%
%TF.CreationDate,2023-12-13T16:55:42-08:00*%
%TF.ProjectId,piEreader,70694572-6561-4646-9572-2e6b69636164,rev?*%
%TF.SameCoordinates,Original*%
%TF.FileFunction,Legend,Bot*%
%TF.FilePolarity,Positive*%
%FSLAX46Y46*%
G04 Gerber Fmt 4.6, Leading zero omitted, Abs format (unit mm)*
G04 Created by KiCad (PCBNEW 7.0.9-7.0.9~ubuntu22.04.1) date 2023-12-13 16:55:42*
%MOMM*%
%LPD*%
G01*
G04 APERTURE LIST*
G04 Aperture macros list*
%AMRoundRect*
0 Rectangle with rounded corners*
0 $1 Rounding radius*
0 $2 $3 $4 $5 $6 $7 $8 $9 X,Y pos of 4 corners*
0 Add a 4 corners polygon primitive as box body*
4,1,4,$2,$3,$4,$5,$6,$7,$8,$9,$2,$3,0*
0 Add four circle primitives for the rounded corners*
1,1,$1+$1,$2,$3*
1,1,$1+$1,$4,$5*
1,1,$1+$1,$6,$7*
1,1,$1+$1,$8,$9*
0 Add four rect primitives between the rounded corners*
20,1,$1+$1,$2,$3,$4,$5,0*
20,1,$1+$1,$4,$5,$6,$7,0*
20,1,$1+$1,$6,$7,$8,$9,0*
20,1,$1+$1,$8,$9,$2,$3,0*%
G04 Aperture macros list end*
%ADD10C,0.150000*%
%ADD11C,0.125000*%
%ADD12C,0.120000*%
%ADD13C,3.000000*%
%ADD14RoundRect,0.225000X-0.250000X0.225000X-0.250000X-0.225000X0.250000X-0.225000X0.250000X0.225000X0*%
%ADD15RoundRect,0.250000X0.250000X0.475000X-0.250000X0.475000X-0.250000X-0.475000X0.250000X-0.475000X0*%
%ADD16R,3.000000X1.000000*%
%ADD17R,1.050000X1.400000*%
%ADD18RoundRect,0.150000X-0.150000X0.587500X-0.150000X-0.587500X0.150000X-0.587500X0.150000X0.587500X0*%
%ADD19C,6.000000*%
%ADD20RoundRect,0.218750X-0.381250X0.218750X-0.381250X-0.218750X0.381250X-0.218750X0.381250X0.218750X0*%
%ADD21RoundRect,0.225000X0.375000X-0.225000X0.375000X0.225000X-0.375000X0.225000X-0.375000X-0.225000X0*%
%ADD22R,0.800000X0.400000*%
%ADD23R,0.650000X0.250000*%
%ADD24RoundRect,0.218750X0.381250X-0.218750X0.381250X0.218750X-0.381250X0.218750X-0.381250X-0.218750X0*%
%ADD25RoundRect,0.225000X-0.375000X0.225000X-0.375000X-0.225000X0.375000X-0.225000X0.375000X0.225000X0*%
%ADD26RoundRect,0.250000X-0.475000X0.250000X-0.475000X-0.250000X0.475000X-0.250000X0.475000X0.250000X0*%
%ADD27RoundRect,0.150000X0.512500X0.150000X-0.512500X0.150000X-0.512500X-0.150000X0.512500X-0.150000X0*%
%ADD28RoundRect,0.250000X0.475000X-0.250000X0.475000X0.250000X-0.475000X0.250000X-0.475000X-0.250000X0*%
%ADD29RoundRect,0.250000X0.262500X0.450000X-0.262500X0.450000X-0.262500X-0.450000X0.262500X-0.450000X0*%
%ADD30R,3.000000X2.000000*%
%ADD31R,1.300000X0.300000*%
%ADD32RoundRect,0.250000X0.450000X-0.262500X0.450000X0.262500X-0.450000X0.262500X-0.450000X-0.262500X0*%
%ADD33RoundRect,0.225000X-0.225000X-0.375000X0.225000X-0.375000X0.225000X0.375000X-0.225000X0.375000X0*%
G04 APERTURE END LIST*
D10*
X127711030Y-104771819D02*
X128187220Y-104771819D01*
X128187220Y-104771819D02*
X128187220Y-103771819D01*
X127377696Y-104771819D02*
X127377696Y-104105152D01*
X127377696Y-103771819D02*
X127425315Y-103819438D01*
X127425315Y-103819438D02*
X127377696Y-103867057D01*
X127377696Y-103867057D02*
X127330077Y-103819438D01*
X127330077Y-103819438D02*
X127377696Y-103771819D01*
X127377696Y-103771819D02*
X127377696Y-103867057D01*
X126472935Y-104105152D02*
X126472935Y-104914676D01*
X126472935Y-104914676D02*
X126520554Y-105009914D01*
X126520554Y-105009914D02*
X126568173Y-105057533D01*
X126568173Y-105057533D02*
X126663411Y-105105152D01*
X126663411Y-105105152D02*
X126806268Y-105105152D01*
X126806268Y-105105152D02*
X126901506Y-105057533D01*
X126472935Y-104724200D02*
X126568173Y-104771819D01*
X126568173Y-104771819D02*
X126758649Y-104771819D01*
X126758649Y-104771819D02*
X126853887Y-104724200D01*
X126853887Y-104724200D02*
X126901506Y-104676580D01*
X126901506Y-104676580D02*
X126949125Y-104581342D01*
X126949125Y-104581342D02*
X126949125Y-104295628D01*
X126949125Y-104295628D02*
X126901506Y-104200390D01*
X126901506Y-104200390D02*
X126853887Y-104152771D01*
X126853887Y-104152771D02*
X126758649Y-104105152D01*
X126758649Y-104105152D02*
X126568173Y-104105152D01*
X126568173Y-104105152D02*
X126472935Y-104152771D01*
X125996744Y-104771819D02*
X125996744Y-103771819D01*
X125568173Y-104771819D02*
X125568173Y-104248009D01*
X125568173Y-104248009D02*
X125615792Y-104152771D01*
X125615792Y-104152771D02*
X125711030Y-104105152D01*
X125711030Y-104105152D02*
X125853887Y-104105152D01*
X125853887Y-104105152D02*
X125949125Y-104152771D01*
X125949125Y-104152771D02*
X125996744Y-104200390D01*
X125234839Y-104105152D02*
X124853887Y-104105152D01*
X125091982Y-103771819D02*
X125091982Y-104628961D01*
X125091982Y-104628961D02*
X125044363Y-104724200D01*
X125044363Y-104724200D02*
X124949125Y-104771819D01*
X124949125Y-104771819D02*
X124853887Y-104771819D01*
X124520553Y-104390866D02*
X123758649Y-104390866D01*
X124139601Y-104771819D02*
X124139601Y-104009914D01*
X139903030Y-110105819D02*
X140379220Y-110105819D01*
X140379220Y-110105819D02*
X140379220Y-109105819D01*
X139569696Y-110105819D02*
X139569696Y-109439152D01*
X139569696Y-109105819D02*
X139617315Y-109153438D01*
X139617315Y-109153438D02*
X139569696Y-109201057D01*
X139569696Y-109201057D02*
X139522077Y-109153438D01*
X139522077Y-109153438D02*
X139569696Y-109105819D01*
X139569696Y-109105819D02*
X139569696Y-109201057D01*
X138664935Y-109439152D02*
X138664935Y-110248676D01*
X138664935Y-110248676D02*
X138712554Y-110343914D01*
X138712554Y-110343914D02*
X138760173Y-110391533D01*
X138760173Y-110391533D02*
X138855411Y-110439152D01*
X138855411Y-110439152D02*
X138998268Y-110439152D01*
X138998268Y-110439152D02*
X139093506Y-110391533D01*
X138664935Y-110058200D02*
X138760173Y-110105819D01*
X138760173Y-110105819D02*
X138950649Y-110105819D01*
X138950649Y-110105819D02*
X139045887Y-110058200D01*
X139045887Y-110058200D02*
X139093506Y-110010580D01*
X139093506Y-110010580D02*
X139141125Y-109915342D01*
X139141125Y-109915342D02*
X139141125Y-109629628D01*
X139141125Y-109629628D02*
X139093506Y-109534390D01*
X139093506Y-109534390D02*
X139045887Y-109486771D01*
X139045887Y-109486771D02*
X138950649Y-109439152D01*
X138950649Y-109439152D02*
X138760173Y-109439152D01*
X138760173Y-109439152D02*
X138664935Y-109486771D01*
X138188744Y-110105819D02*
X138188744Y-109105819D01*
X137760173Y-110105819D02*
X137760173Y-109582009D01*
X137760173Y-109582009D02*
X137807792Y-109486771D01*
X137807792Y-109486771D02*
X137903030Y-109439152D01*
X137903030Y-109439152D02*
X138045887Y-109439152D01*
X138045887Y-109439152D02*
X138141125Y-109486771D01*
X138141125Y-109486771D02*
X138188744Y-109534390D01*
X137426839Y-109439152D02*
X137045887Y-109439152D01*
X137283982Y-109105819D02*
X137283982Y-109962961D01*
X137283982Y-109962961D02*
X137236363Y-110058200D01*
X137236363Y-110058200D02*
X137141125Y-110105819D01*
X137141125Y-110105819D02*
X137045887Y-110105819D01*
X135379220Y-110010580D02*
X135426839Y-110058200D01*
X135426839Y-110058200D02*
X135569696Y-110105819D01*
X135569696Y-110105819D02*
X135664934Y-110105819D01*
X135664934Y-110105819D02*
X135807791Y-110058200D01*
X135807791Y-110058200D02*
X135903029Y-109962961D01*
X135903029Y-109962961D02*
X135950648Y-109867723D01*
X135950648Y-109867723D02*
X135998267Y-109677247D01*
X135998267Y-109677247D02*
X135998267Y-109534390D01*
X135998267Y-109534390D02*
X135950648Y-109343914D01*
X135950648Y-109343914D02*
X135903029Y-109248676D01*
X135903029Y-109248676D02*
X135807791Y-109153438D01*
X135807791Y-109153438D02*
X135664934Y-109105819D01*
X135664934Y-109105819D02*
X135569696Y-109105819D01*
X135569696Y-109105819D02*
X135426839Y-109153438D01*
X135426839Y-109153438D02*
X135379220Y-109201057D01*
X135093505Y-109105819D02*
X134522077Y-109105819D01*
X134807791Y-110105819D02*
X134807791Y-109105819D01*
X133617315Y-110105819D02*
X133950648Y-109629628D01*
X134188743Y-110105819D02*
X134188743Y-109105819D01*
X134188743Y-109105819D02*
X133807791Y-109105819D01*
X133807791Y-109105819D02*
X133712553Y-109153438D01*
X133712553Y-109153438D02*
X133664934Y-109201057D01*
X133664934Y-109201057D02*
X133617315Y-109296295D01*
X133617315Y-109296295D02*
X133617315Y-109439152D01*
X133617315Y-109439152D02*
X133664934Y-109534390D01*
X133664934Y-109534390D02*
X133712553Y-109582009D01*
X133712553Y-109582009D02*
X133807791Y-109629628D01*
X133807791Y-109629628D02*
X134188743Y-109629628D01*
X132712553Y-110105819D02*
X133188743Y-110105819D01*
X133188743Y-110105819D02*
X133188743Y-109105819D01*
D11*
X136014240Y-153287119D02*
X136347573Y-152810928D01*
X136585668Y-153287119D02*
X136585668Y-152287119D01*
X136585668Y-152287119D02*
X136204716Y-152287119D01*
X136204716Y-152287119D02*
X136109478Y-152334738D01*
X136109478Y-152334738D02*
X136061859Y-152382357D01*
X136061859Y-152382357D02*
X136014240Y-152477595D01*
X136014240Y-152477595D02*
X136014240Y-152620452D01*
X136014240Y-152620452D02*
X136061859Y-152715690D01*
X136061859Y-152715690D02*
X136109478Y-152763309D01*
X136109478Y-152763309D02*
X136204716Y-152810928D01*
X136204716Y-152810928D02*
X136585668Y-152810928D01*
X135633287Y-153239500D02*
X135490430Y-153287119D01*
X135490430Y-153287119D02*
X135252335Y-153287119D01*
X135252335Y-153287119D02*
X135157097Y-153239500D01*
X135157097Y-153239500D02*
X135109478Y-153191880D01*
X135109478Y-153191880D02*
X135061859Y-153096642D01*
X135061859Y-153096642D02*
X135061859Y-153001404D01*
X135061859Y-153001404D02*
X135109478Y-152906166D01*
X135109478Y-152906166D02*
X135157097Y-152858547D01*
X135157097Y-152858547D02*
X135252335Y-152810928D01*
X135252335Y-152810928D02*
X135442811Y-152763309D01*
X135442811Y-152763309D02*
X135538049Y-152715690D01*
X135538049Y-152715690D02*
X135585668Y-152668071D01*
X135585668Y-152668071D02*
X135633287Y-152572833D01*
X135633287Y-152572833D02*
X135633287Y-152477595D01*
X135633287Y-152477595D02*
X135585668Y-152382357D01*
X135585668Y-152382357D02*
X135538049Y-152334738D01*
X135538049Y-152334738D02*
X135442811Y-152287119D01*
X135442811Y-152287119D02*
X135204716Y-152287119D01*
X135204716Y-152287119D02*
X135061859Y-152334738D01*
X134776144Y-152287119D02*
X134204716Y-152287119D01*
X134490430Y-153287119D02*
X134490430Y-152287119D01*
D10*
X148554839Y-153238200D02*
X148411982Y-153285819D01*
X148411982Y-153285819D02*
X148173887Y-153285819D01*
X148173887Y-153285819D02*
X148078649Y-153238200D01*
X148078649Y-153238200D02*
X148031030Y-153190580D01*
X148031030Y-153190580D02*
X147983411Y-153095342D01*
X147983411Y-153095342D02*
X147983411Y-153000104D01*
X147983411Y-153000104D02*
X148031030Y-152904866D01*
X148031030Y-152904866D02*
X148078649Y-152857247D01*
X148078649Y-152857247D02*
X148173887Y-152809628D01*
X148173887Y-152809628D02*
X148364363Y-152762009D01*
X148364363Y-152762009D02*
X148459601Y-152714390D01*
X148459601Y-152714390D02*
X148507220Y-152666771D01*
X148507220Y-152666771D02*
X148554839Y-152571533D01*
X148554839Y-152571533D02*
X148554839Y-152476295D01*
X148554839Y-152476295D02*
X148507220Y-152381057D01*
X148507220Y-152381057D02*
X148459601Y-152333438D01*
X148459601Y-152333438D02*
X148364363Y-152285819D01*
X148364363Y-152285819D02*
X148126268Y-152285819D01*
X148126268Y-152285819D02*
X147983411Y-152333438D01*
X147554839Y-153285819D02*
X147554839Y-152285819D01*
X147554839Y-152285819D02*
X147316744Y-152285819D01*
X147316744Y-152285819D02*
X147173887Y-152333438D01*
X147173887Y-152333438D02*
X147078649Y-152428676D01*
X147078649Y-152428676D02*
X147031030Y-152523914D01*
X147031030Y-152523914D02*
X146983411Y-152714390D01*
X146983411Y-152714390D02*
X146983411Y-152857247D01*
X146983411Y-152857247D02*
X147031030Y-153047723D01*
X147031030Y-153047723D02*
X147078649Y-153142961D01*
X147078649Y-153142961D02*
X147173887Y-153238200D01*
X147173887Y-153238200D02*
X147316744Y-153285819D01*
X147316744Y-153285819D02*
X147554839Y-153285819D01*
X146602458Y-153000104D02*
X146126268Y-153000104D01*
X146697696Y-153285819D02*
X146364363Y-152285819D01*
X146364363Y-152285819D02*
X146031030Y-153285819D01*
X122123030Y-104771819D02*
X122599220Y-104771819D01*
X122599220Y-104771819D02*
X122599220Y-103771819D01*
X121789696Y-104771819D02*
X121789696Y-104105152D01*
X121789696Y-103771819D02*
X121837315Y-103819438D01*
X121837315Y-103819438D02*
X121789696Y-103867057D01*
X121789696Y-103867057D02*
X121742077Y-103819438D01*
X121742077Y-103819438D02*
X121789696Y-103771819D01*
X121789696Y-103771819D02*
X121789696Y-103867057D01*
X120884935Y-104105152D02*
X120884935Y-104914676D01*
X120884935Y-104914676D02*
X120932554Y-105009914D01*
X120932554Y-105009914D02*
X120980173Y-105057533D01*
X120980173Y-105057533D02*
X121075411Y-105105152D01*
X121075411Y-105105152D02*
X121218268Y-105105152D01*
X121218268Y-105105152D02*
X121313506Y-105057533D01*
X120884935Y-104724200D02*
X120980173Y-104771819D01*
X120980173Y-104771819D02*
X121170649Y-104771819D01*
X121170649Y-104771819D02*
X121265887Y-104724200D01*
X121265887Y-104724200D02*
X121313506Y-104676580D01*
X121313506Y-104676580D02*
X121361125Y-104581342D01*
X121361125Y-104581342D02*
X121361125Y-104295628D01*
X121361125Y-104295628D02*
X121313506Y-104200390D01*
X121313506Y-104200390D02*
X121265887Y-104152771D01*
X121265887Y-104152771D02*
X121170649Y-104105152D01*
X121170649Y-104105152D02*
X120980173Y-104105152D01*
X120980173Y-104105152D02*
X120884935Y-104152771D01*
X120408744Y-104771819D02*
X120408744Y-103771819D01*
X119980173Y-104771819D02*
X119980173Y-104248009D01*
X119980173Y-104248009D02*
X120027792Y-104152771D01*
X120027792Y-104152771D02*
X120123030Y-104105152D01*
X120123030Y-104105152D02*
X120265887Y-104105152D01*
X120265887Y-104105152D02*
X120361125Y-104152771D01*
X120361125Y-104152771D02*
X120408744Y-104200390D01*
X119646839Y-104105152D02*
X119265887Y-104105152D01*
X119503982Y-103771819D02*
X119503982Y-104628961D01*
X119503982Y-104628961D02*
X119456363Y-104724200D01*
X119456363Y-104724200D02*
X119361125Y-104771819D01*
X119361125Y-104771819D02*
X119265887Y-104771819D01*
X118932553Y-104390866D02*
X118170649Y-104390866D01*
D11*
X142173668Y-153287119D02*
X142173668Y-152287119D01*
X141697478Y-153287119D02*
X141697478Y-152287119D01*
X141697478Y-152287119D02*
X141126050Y-153287119D01*
X141126050Y-153287119D02*
X141126050Y-152287119D01*
X140792716Y-152287119D02*
X140221288Y-152287119D01*
X140507002Y-153287119D02*
X140507002Y-152287119D01*
D10*
X176904420Y-152492952D02*
X176904420Y-153492952D01*
X176904420Y-152540571D02*
X176809182Y-152492952D01*
X176809182Y-152492952D02*
X176618706Y-152492952D01*
X176618706Y-152492952D02*
X176523468Y-152540571D01*
X176523468Y-152540571D02*
X176475849Y-152588190D01*
X176475849Y-152588190D02*
X176428230Y-152683428D01*
X176428230Y-152683428D02*
X176428230Y-152969142D01*
X176428230Y-152969142D02*
X176475849Y-153064380D01*
X176475849Y-153064380D02*
X176523468Y-153112000D01*
X176523468Y-153112000D02*
X176618706Y-153159619D01*
X176618706Y-153159619D02*
X176809182Y-153159619D01*
X176809182Y-153159619D02*
X176904420Y-153112000D01*
X175999658Y-153159619D02*
X175999658Y-152492952D01*
X175999658Y-152159619D02*
X176047277Y-152207238D01*
X176047277Y-152207238D02*
X175999658Y-152254857D01*
X175999658Y-152254857D02*
X175952039Y-152207238D01*
X175952039Y-152207238D02*
X175999658Y-152159619D01*
X175999658Y-152159619D02*
X175999658Y-152254857D01*
X175523468Y-152635809D02*
X175190135Y-152635809D01*
X175047278Y-153159619D02*
X175523468Y-153159619D01*
X175523468Y-153159619D02*
X175523468Y-152159619D01*
X175523468Y-152159619D02*
X175047278Y-152159619D01*
X174618706Y-153159619D02*
X174618706Y-152492952D01*
X174618706Y-152683428D02*
X174571087Y-152588190D01*
X174571087Y-152588190D02*
X174523468Y-152540571D01*
X174523468Y-152540571D02*
X174428230Y-152492952D01*
X174428230Y-152492952D02*
X174332992Y-152492952D01*
X173618706Y-153112000D02*
X173713944Y-153159619D01*
X173713944Y-153159619D02*
X173904420Y-153159619D01*
X173904420Y-153159619D02*
X173999658Y-153112000D01*
X173999658Y-153112000D02*
X174047277Y-153016761D01*
X174047277Y-153016761D02*
X174047277Y-152635809D01*
X174047277Y-152635809D02*
X173999658Y-152540571D01*
X173999658Y-152540571D02*
X173904420Y-152492952D01*
X173904420Y-152492952D02*
X173713944Y-152492952D01*
X173713944Y-152492952D02*
X173618706Y-152540571D01*
X173618706Y-152540571D02*
X173571087Y-152635809D01*
X173571087Y-152635809D02*
X173571087Y-152731047D01*
X173571087Y-152731047D02*
X174047277Y-152826285D01*
X172713944Y-153159619D02*
X172713944Y-152635809D01*
X172713944Y-152635809D02*
X172761563Y-152540571D01*
X172761563Y-152540571D02*
X172856801Y-152492952D01*
X172856801Y-152492952D02*
X173047277Y-152492952D01*
X173047277Y-152492952D02*
X173142515Y-152540571D01*
X172713944Y-153112000D02*
X172809182Y-153159619D01*
X172809182Y-153159619D02*
X173047277Y-153159619D01*
X173047277Y-153159619D02*
X173142515Y-153112000D01*
X173142515Y-153112000D02*
X173190134Y-153016761D01*
X173190134Y-153016761D02*
X173190134Y-152921523D01*
X173190134Y-152921523D02*
X173142515Y-152826285D01*
X173142515Y-152826285D02*
X173047277Y-152778666D01*
X173047277Y-152778666D02*
X172809182Y-152778666D01*
X172809182Y-152778666D02*
X172713944Y-152731047D01*
X171809182Y-153159619D02*
X171809182Y-152159619D01*
X171809182Y-153112000D02*
X171904420Y-153159619D01*
X171904420Y-153159619D02*
X172094896Y-153159619D01*
X172094896Y-153159619D02*
X172190134Y-153112000D01*
X172190134Y-153112000D02*
X172237753Y-153064380D01*
X172237753Y-153064380D02*
X172285372Y-152969142D01*
X172285372Y-152969142D02*
X172285372Y-152683428D01*
X172285372Y-152683428D02*
X172237753Y-152588190D01*
X172237753Y-152588190D02*
X172190134Y-152540571D01*
X172190134Y-152540571D02*
X172094896Y-152492952D01*
X172094896Y-152492952D02*
X171904420Y-152492952D01*
X171904420Y-152492952D02*
X171809182Y-152540571D01*
X170952039Y-153112000D02*
X171047277Y-153159619D01*
X171047277Y-153159619D02*
X171237753Y-153159619D01*
X171237753Y-153159619D02*
X171332991Y-153112000D01*
X171332991Y-153112000D02*
X171380610Y-153016761D01*
X171380610Y-153016761D02*
X171380610Y-152635809D01*
X171380610Y-152635809D02*
X171332991Y-152540571D01*
X171332991Y-152540571D02*
X171237753Y-152492952D01*
X171237753Y-152492952D02*
X171047277Y-152492952D01*
X171047277Y-152492952D02*
X170952039Y-152540571D01*
X170952039Y-152540571D02*
X170904420Y-152635809D01*
X170904420Y-152635809D02*
X170904420Y-152731047D01*
X170904420Y-152731047D02*
X171380610Y-152826285D01*
X170475848Y-153159619D02*
X170475848Y-152492952D01*
X170475848Y-152683428D02*
X170428229Y-152588190D01*
X170428229Y-152588190D02*
X170380610Y-152540571D01*
X170380610Y-152540571D02*
X170285372Y-152492952D01*
X170285372Y-152492952D02*
X170190134Y-152492952D01*
X169190133Y-152492952D02*
X168952038Y-153159619D01*
X168952038Y-153159619D02*
X168713943Y-152492952D01*
X167856800Y-152159619D02*
X168332990Y-152159619D01*
X168332990Y-152159619D02*
X168380609Y-152635809D01*
X168380609Y-152635809D02*
X168332990Y-152588190D01*
X168332990Y-152588190D02*
X168237752Y-152540571D01*
X168237752Y-152540571D02*
X167999657Y-152540571D01*
X167999657Y-152540571D02*
X167904419Y-152588190D01*
X167904419Y-152588190D02*
X167856800Y-152635809D01*
X167856800Y-152635809D02*
X167809181Y-152731047D01*
X167809181Y-152731047D02*
X167809181Y-152969142D01*
X167809181Y-152969142D02*
X167856800Y-153064380D01*
X167856800Y-153064380D02*
X167904419Y-153112000D01*
X167904419Y-153112000D02*
X167999657Y-153159619D01*
X167999657Y-153159619D02*
X168237752Y-153159619D01*
X168237752Y-153159619D02*
X168332990Y-153112000D01*
X168332990Y-153112000D02*
X168380609Y-153064380D01*
X167380609Y-153064380D02*
X167332990Y-153112000D01*
X167332990Y-153112000D02*
X167380609Y-153159619D01*
X167380609Y-153159619D02*
X167428228Y-153112000D01*
X167428228Y-153112000D02*
X167380609Y-153064380D01*
X167380609Y-153064380D02*
X167380609Y-153159619D01*
X166380610Y-153159619D02*
X166952038Y-153159619D01*
X166666324Y-153159619D02*
X166666324Y-152159619D01*
X166666324Y-152159619D02*
X166761562Y-152302476D01*
X166761562Y-152302476D02*
X166856800Y-152397714D01*
X166856800Y-152397714D02*
X166952038Y-152445333D01*
X154142839Y-153238200D02*
X153999982Y-153285819D01*
X153999982Y-153285819D02*
X153761887Y-153285819D01*
X153761887Y-153285819D02*
X153666649Y-153238200D01*
X153666649Y-153238200D02*
X153619030Y-153190580D01*
X153619030Y-153190580D02*
X153571411Y-153095342D01*
X153571411Y-153095342D02*
X153571411Y-153000104D01*
X153571411Y-153000104D02*
X153619030Y-152904866D01*
X153619030Y-152904866D02*
X153666649Y-152857247D01*
X153666649Y-152857247D02*
X153761887Y-152809628D01*
X153761887Y-152809628D02*
X153952363Y-152762009D01*
X153952363Y-152762009D02*
X154047601Y-152714390D01*
X154047601Y-152714390D02*
X154095220Y-152666771D01*
X154095220Y-152666771D02*
X154142839Y-152571533D01*
X154142839Y-152571533D02*
X154142839Y-152476295D01*
X154142839Y-152476295D02*
X154095220Y-152381057D01*
X154095220Y-152381057D02*
X154047601Y-152333438D01*
X154047601Y-152333438D02*
X153952363Y-152285819D01*
X153952363Y-152285819D02*
X153714268Y-152285819D01*
X153714268Y-152285819D02*
X153571411Y-152333438D01*
X152571411Y-153190580D02*
X152619030Y-153238200D01*
X152619030Y-153238200D02*
X152761887Y-153285819D01*
X152761887Y-153285819D02*
X152857125Y-153285819D01*
X152857125Y-153285819D02*
X152999982Y-153238200D01*
X152999982Y-153238200D02*
X153095220Y-153142961D01*
X153095220Y-153142961D02*
X153142839Y-153047723D01*
X153142839Y-153047723D02*
X153190458Y-152857247D01*
X153190458Y-152857247D02*
X153190458Y-152714390D01*
X153190458Y-152714390D02*
X153142839Y-152523914D01*
X153142839Y-152523914D02*
X153095220Y-152428676D01*
X153095220Y-152428676D02*
X152999982Y-152333438D01*
X152999982Y-152333438D02*
X152857125Y-152285819D01*
X152857125Y-152285819D02*
X152761887Y-152285819D01*
X152761887Y-152285819D02*
X152619030Y-152333438D01*
X152619030Y-152333438D02*
X152571411Y-152381057D01*
X151666649Y-153285819D02*
X152142839Y-153285819D01*
X152142839Y-153285819D02*
X152142839Y-152285819D01*
X132749580Y-91357142D02*
X132797200Y-91309523D01*
X132797200Y-91309523D02*
X132844819Y-91166666D01*
X132844819Y-91166666D02*
X132844819Y-91071428D01*
X132844819Y-91071428D02*
X132797200Y-90928571D01*
X132797200Y-90928571D02*
X132701961Y-90833333D01*
X132701961Y-90833333D02*
X132606723Y-90785714D01*
X132606723Y-90785714D02*
X132416247Y-90738095D01*
X132416247Y-90738095D02*
X132273390Y-90738095D01*
X132273390Y-90738095D02*
X132082914Y-90785714D01*
X132082914Y-90785714D02*
X131987676Y-90833333D01*
X131987676Y-90833333D02*
X131892438Y-90928571D01*
X131892438Y-90928571D02*
X131844819Y-91071428D01*
X131844819Y-91071428D02*
X131844819Y-91166666D01*
X131844819Y-91166666D02*
X131892438Y-91309523D01*
X131892438Y-91309523D02*
X131940057Y-91357142D01*
X132844819Y-92309523D02*
X132844819Y-91738095D01*
X132844819Y-92023809D02*
X131844819Y-92023809D01*
X131844819Y-92023809D02*
X131987676Y-91928571D01*
X131987676Y-91928571D02*
X132082914Y-91833333D01*
X132082914Y-91833333D02*
X132130533Y-91738095D01*
X132844819Y-93261904D02*
X132844819Y-92690476D01*
X132844819Y-92976190D02*
X131844819Y-92976190D01*
X131844819Y-92976190D02*
X131987676Y-92880952D01*
X131987676Y-92880952D02*
X132082914Y-92785714D01*
X132082914Y-92785714D02*
X132130533Y-92690476D01*
X138209257Y-91748780D02*
X138256876Y-91796400D01*
X138256876Y-91796400D02*
X138399733Y-91844019D01*
X138399733Y-91844019D02*
X138494971Y-91844019D01*
X138494971Y-91844019D02*
X138637828Y-91796400D01*
X138637828Y-91796400D02*
X138733066Y-91701161D01*
X138733066Y-91701161D02*
X138780685Y-91605923D01*
X138780685Y-91605923D02*
X138828304Y-91415447D01*
X138828304Y-91415447D02*
X138828304Y-91272590D01*
X138828304Y-91272590D02*
X138780685Y-91082114D01*
X138780685Y-91082114D02*
X138733066Y-90986876D01*
X138733066Y-90986876D02*
X138637828Y-90891638D01*
X138637828Y-90891638D02*
X138494971Y-90844019D01*
X138494971Y-90844019D02*
X138399733Y-90844019D01*
X138399733Y-90844019D02*
X138256876Y-90891638D01*
X138256876Y-90891638D02*
X138209257Y-90939257D01*
X137256876Y-91844019D02*
X137828304Y-91844019D01*
X137542590Y-91844019D02*
X137542590Y-90844019D01*
X137542590Y-90844019D02*
X137637828Y-90986876D01*
X137637828Y-90986876D02*
X137733066Y-91082114D01*
X137733066Y-91082114D02*
X137828304Y-91129733D01*
X136875923Y-90939257D02*
X136828304Y-90891638D01*
X136828304Y-90891638D02*
X136733066Y-90844019D01*
X136733066Y-90844019D02*
X136494971Y-90844019D01*
X136494971Y-90844019D02*
X136399733Y-90891638D01*
X136399733Y-90891638D02*
X136352114Y-90939257D01*
X136352114Y-90939257D02*
X136304495Y-91034495D01*
X136304495Y-91034495D02*
X136304495Y-91129733D01*
X136304495Y-91129733D02*
X136352114Y-91272590D01*
X136352114Y-91272590D02*
X136923542Y-91844019D01*
X136923542Y-91844019D02*
X136304495Y-91844019D01*
X153663333Y-71234819D02*
X153663333Y-71949104D01*
X153663333Y-71949104D02*
X153710952Y-72091961D01*
X153710952Y-72091961D02*
X153806190Y-72187200D01*
X153806190Y-72187200D02*
X153949047Y-72234819D01*
X153949047Y-72234819D02*
X154044285Y-72234819D01*
X152758571Y-71568152D02*
X152758571Y-72234819D01*
X152996666Y-71187200D02*
X153234761Y-71901485D01*
X153234761Y-71901485D02*
X152615714Y-71901485D01*
X174006009Y-66971428D02*
X174053628Y-67114285D01*
X174053628Y-67114285D02*
X174101247Y-67161904D01*
X174101247Y-67161904D02*
X174196485Y-67209523D01*
X174196485Y-67209523D02*
X174339342Y-67209523D01*
X174339342Y-67209523D02*
X174434580Y-67161904D01*
X174434580Y-67161904D02*
X174482200Y-67114285D01*
X174482200Y-67114285D02*
X174529819Y-67019047D01*
X174529819Y-67019047D02*
X174529819Y-66638095D01*
X174529819Y-66638095D02*
X173529819Y-66638095D01*
X173529819Y-66638095D02*
X173529819Y-66971428D01*
X173529819Y-66971428D02*
X173577438Y-67066666D01*
X173577438Y-67066666D02*
X173625057Y-67114285D01*
X173625057Y-67114285D02*
X173720295Y-67161904D01*
X173720295Y-67161904D02*
X173815533Y-67161904D01*
X173815533Y-67161904D02*
X173910771Y-67114285D01*
X173910771Y-67114285D02*
X173958390Y-67066666D01*
X173958390Y-67066666D02*
X174006009Y-66971428D01*
X174006009Y-66971428D02*
X174006009Y-66638095D01*
X174529819Y-68114285D02*
X174529819Y-67638095D01*
X174529819Y-67638095D02*
X173529819Y-67638095D01*
X174148866Y-68447619D02*
X174148866Y-69209524D01*
X174529819Y-70209523D02*
X174529819Y-69638095D01*
X174529819Y-69923809D02*
X173529819Y-69923809D01*
X173529819Y-69923809D02*
X173672676Y-69828571D01*
X173672676Y-69828571D02*
X173767914Y-69733333D01*
X173767914Y-69733333D02*
X173815533Y-69638095D01*
X125825238Y-73956057D02*
X125920476Y-73908438D01*
X125920476Y-73908438D02*
X126015714Y-73813200D01*
X126015714Y-73813200D02*
X126158571Y-73670342D01*
X126158571Y-73670342D02*
X126253809Y-73622723D01*
X126253809Y-73622723D02*
X126349047Y-73622723D01*
X126301428Y-73860819D02*
X126396666Y-73813200D01*
X126396666Y-73813200D02*
X126491904Y-73717961D01*
X126491904Y-73717961D02*
X126539523Y-73527485D01*
X126539523Y-73527485D02*
X126539523Y-73194152D01*
X126539523Y-73194152D02*
X126491904Y-73003676D01*
X126491904Y-73003676D02*
X126396666Y-72908438D01*
X126396666Y-72908438D02*
X126301428Y-72860819D01*
X126301428Y-72860819D02*
X126110952Y-72860819D01*
X126110952Y-72860819D02*
X126015714Y-72908438D01*
X126015714Y-72908438D02*
X125920476Y-73003676D01*
X125920476Y-73003676D02*
X125872857Y-73194152D01*
X125872857Y-73194152D02*
X125872857Y-73527485D01*
X125872857Y-73527485D02*
X125920476Y-73717961D01*
X125920476Y-73717961D02*
X126015714Y-73813200D01*
X126015714Y-73813200D02*
X126110952Y-73860819D01*
X126110952Y-73860819D02*
X126301428Y-73860819D01*
X124920476Y-73860819D02*
X125491904Y-73860819D01*
X125206190Y-73860819D02*
X125206190Y-72860819D01*
X125206190Y-72860819D02*
X125301428Y-73003676D01*
X125301428Y-73003676D02*
X125396666Y-73098914D01*
X125396666Y-73098914D02*
X125491904Y-73146533D01*
X125407657Y-90783580D02*
X125455276Y-90831200D01*
X125455276Y-90831200D02*
X125598133Y-90878819D01*
X125598133Y-90878819D02*
X125693371Y-90878819D01*
X125693371Y-90878819D02*
X125836228Y-90831200D01*
X125836228Y-90831200D02*
X125931466Y-90735961D01*
X125931466Y-90735961D02*
X125979085Y-90640723D01*
X125979085Y-90640723D02*
X126026704Y-90450247D01*
X126026704Y-90450247D02*
X126026704Y-90307390D01*
X126026704Y-90307390D02*
X125979085Y-90116914D01*
X125979085Y-90116914D02*
X125931466Y-90021676D01*
X125931466Y-90021676D02*
X125836228Y-89926438D01*
X125836228Y-89926438D02*
X125693371Y-89878819D01*
X125693371Y-89878819D02*
X125598133Y-89878819D01*
X125598133Y-89878819D02*
X125455276Y-89926438D01*
X125455276Y-89926438D02*
X125407657Y-89974057D01*
X124455276Y-90878819D02*
X125026704Y-90878819D01*
X124740990Y-90878819D02*
X124740990Y-89878819D01*
X124740990Y-89878819D02*
X124836228Y-90021676D01*
X124836228Y-90021676D02*
X124931466Y-90116914D01*
X124931466Y-90116914D02*
X125026704Y-90164533D01*
X123836228Y-89878819D02*
X123740990Y-89878819D01*
X123740990Y-89878819D02*
X123645752Y-89926438D01*
X123645752Y-89926438D02*
X123598133Y-89974057D01*
X123598133Y-89974057D02*
X123550514Y-90069295D01*
X123550514Y-90069295D02*
X123502895Y-90259771D01*
X123502895Y-90259771D02*
X123502895Y-90497866D01*
X123502895Y-90497866D02*
X123550514Y-90688342D01*
X123550514Y-90688342D02*
X123598133Y-90783580D01*
X123598133Y-90783580D02*
X123645752Y-90831200D01*
X123645752Y-90831200D02*
X123740990Y-90878819D01*
X123740990Y-90878819D02*
X123836228Y-90878819D01*
X123836228Y-90878819D02*
X123931466Y-90831200D01*
X123931466Y-90831200D02*
X123979085Y-90783580D01*
X123979085Y-90783580D02*
X124026704Y-90688342D01*
X124026704Y-90688342D02*
X124074323Y-90497866D01*
X124074323Y-90497866D02*
X124074323Y-90259771D01*
X124074323Y-90259771D02*
X124026704Y-90069295D01*
X124026704Y-90069295D02*
X123979085Y-89974057D01*
X123979085Y-89974057D02*
X123931466Y-89926438D01*
X123931466Y-89926438D02*
X123836228Y-89878819D01*
X104604419Y-126495895D02*
X103604419Y-126495895D01*
X104080609Y-126495895D02*
X104080609Y-127067323D01*
X104604419Y-127067323D02*
X103604419Y-127067323D01*
X103937752Y-127972085D02*
X104604419Y-127972085D01*
X103556800Y-127733990D02*
X104271085Y-127495895D01*
X104271085Y-127495895D02*
X104271085Y-128114942D01*
X124438666Y-86617980D02*
X124486285Y-86665600D01*
X124486285Y-86665600D02*
X124629142Y-86713219D01*
X124629142Y-86713219D02*
X124724380Y-86713219D01*
X124724380Y-86713219D02*
X124867237Y-86665600D01*
X124867237Y-86665600D02*
X124962475Y-86570361D01*
X124962475Y-86570361D02*
X125010094Y-86475123D01*
X125010094Y-86475123D02*
X125057713Y-86284647D01*
X125057713Y-86284647D02*
X125057713Y-86141790D01*
X125057713Y-86141790D02*
X125010094Y-85951314D01*
X125010094Y-85951314D02*
X124962475Y-85856076D01*
X124962475Y-85856076D02*
X124867237Y-85760838D01*
X124867237Y-85760838D02*
X124724380Y-85713219D01*
X124724380Y-85713219D02*
X124629142Y-85713219D01*
X124629142Y-85713219D02*
X124486285Y-85760838D01*
X124486285Y-85760838D02*
X124438666Y-85808457D01*
X123581523Y-85713219D02*
X123771999Y-85713219D01*
X123771999Y-85713219D02*
X123867237Y-85760838D01*
X123867237Y-85760838D02*
X123914856Y-85808457D01*
X123914856Y-85808457D02*
X124010094Y-85951314D01*
X124010094Y-85951314D02*
X124057713Y-86141790D01*
X124057713Y-86141790D02*
X124057713Y-86522742D01*
X124057713Y-86522742D02*
X124010094Y-86617980D01*
X124010094Y-86617980D02*
X123962475Y-86665600D01*
X123962475Y-86665600D02*
X123867237Y-86713219D01*
X123867237Y-86713219D02*
X123676761Y-86713219D01*
X123676761Y-86713219D02*
X123581523Y-86665600D01*
X123581523Y-86665600D02*
X123533904Y-86617980D01*
X123533904Y-86617980D02*
X123486285Y-86522742D01*
X123486285Y-86522742D02*
X123486285Y-86284647D01*
X123486285Y-86284647D02*
X123533904Y-86189409D01*
X123533904Y-86189409D02*
X123581523Y-86141790D01*
X123581523Y-86141790D02*
X123676761Y-86094171D01*
X123676761Y-86094171D02*
X123867237Y-86094171D01*
X123867237Y-86094171D02*
X123962475Y-86141790D01*
X123962475Y-86141790D02*
X124010094Y-86189409D01*
X124010094Y-86189409D02*
X124057713Y-86284647D01*
X140510419Y-95699533D02*
X140510419Y-95223343D01*
X140510419Y-95223343D02*
X139510419Y-95223343D01*
X139605657Y-95985248D02*
X139558038Y-96032867D01*
X139558038Y-96032867D02*
X139510419Y-96128105D01*
X139510419Y-96128105D02*
X139510419Y-96366200D01*
X139510419Y-96366200D02*
X139558038Y-96461438D01*
X139558038Y-96461438D02*
X139605657Y-96509057D01*
X139605657Y-96509057D02*
X139700895Y-96556676D01*
X139700895Y-96556676D02*
X139796133Y-96556676D01*
X139796133Y-96556676D02*
X139938990Y-96509057D01*
X139938990Y-96509057D02*
X140510419Y-95937629D01*
X140510419Y-95937629D02*
X140510419Y-96556676D01*
X124753666Y-78337580D02*
X124801285Y-78385200D01*
X124801285Y-78385200D02*
X124944142Y-78432819D01*
X124944142Y-78432819D02*
X125039380Y-78432819D01*
X125039380Y-78432819D02*
X125182237Y-78385200D01*
X125182237Y-78385200D02*
X125277475Y-78289961D01*
X125277475Y-78289961D02*
X125325094Y-78194723D01*
X125325094Y-78194723D02*
X125372713Y-78004247D01*
X125372713Y-78004247D02*
X125372713Y-77861390D01*
X125372713Y-77861390D02*
X125325094Y-77670914D01*
X125325094Y-77670914D02*
X125277475Y-77575676D01*
X125277475Y-77575676D02*
X125182237Y-77480438D01*
X125182237Y-77480438D02*
X125039380Y-77432819D01*
X125039380Y-77432819D02*
X124944142Y-77432819D01*
X124944142Y-77432819D02*
X124801285Y-77480438D01*
X124801285Y-77480438D02*
X124753666Y-77528057D01*
X124372713Y-77528057D02*
X124325094Y-77480438D01*
X124325094Y-77480438D02*
X124229856Y-77432819D01*
X124229856Y-77432819D02*
X123991761Y-77432819D01*
X123991761Y-77432819D02*
X123896523Y-77480438D01*
X123896523Y-77480438D02*
X123848904Y-77528057D01*
X123848904Y-77528057D02*
X123801285Y-77623295D01*
X123801285Y-77623295D02*
X123801285Y-77718533D01*
X123801285Y-77718533D02*
X123848904Y-77861390D01*
X123848904Y-77861390D02*
X124420332Y-78432819D01*
X124420332Y-78432819D02*
X123801285Y-78432819D01*
X131918894Y-81785619D02*
X131918894Y-80785619D01*
X131918894Y-80785619D02*
X131680799Y-80785619D01*
X131680799Y-80785619D02*
X131537942Y-80833238D01*
X131537942Y-80833238D02*
X131442704Y-80928476D01*
X131442704Y-80928476D02*
X131395085Y-81023714D01*
X131395085Y-81023714D02*
X131347466Y-81214190D01*
X131347466Y-81214190D02*
X131347466Y-81357047D01*
X131347466Y-81357047D02*
X131395085Y-81547523D01*
X131395085Y-81547523D02*
X131442704Y-81642761D01*
X131442704Y-81642761D02*
X131537942Y-81738000D01*
X131537942Y-81738000D02*
X131680799Y-81785619D01*
X131680799Y-81785619D02*
X131918894Y-81785619D01*
X130395085Y-81785619D02*
X130966513Y-81785619D01*
X130680799Y-81785619D02*
X130680799Y-80785619D01*
X130680799Y-80785619D02*
X130776037Y-80928476D01*
X130776037Y-80928476D02*
X130871275Y-81023714D01*
X130871275Y-81023714D02*
X130966513Y-81071333D01*
X148825180Y-144543333D02*
X148110895Y-144543333D01*
X148110895Y-144543333D02*
X147968038Y-144590952D01*
X147968038Y-144590952D02*
X147872800Y-144686190D01*
X147872800Y-144686190D02*
X147825180Y-144829047D01*
X147825180Y-144829047D02*
X147825180Y-144924285D01*
X148825180Y-144162380D02*
X148825180Y-143543333D01*
X148825180Y-143543333D02*
X148444228Y-143876666D01*
X148444228Y-143876666D02*
X148444228Y-143733809D01*
X148444228Y-143733809D02*
X148396609Y-143638571D01*
X148396609Y-143638571D02*
X148348990Y-143590952D01*
X148348990Y-143590952D02*
X148253752Y-143543333D01*
X148253752Y-143543333D02*
X148015657Y-143543333D01*
X148015657Y-143543333D02*
X147920419Y-143590952D01*
X147920419Y-143590952D02*
X147872800Y-143638571D01*
X147872800Y-143638571D02*
X147825180Y-143733809D01*
X147825180Y-143733809D02*
X147825180Y-144019523D01*
X147825180Y-144019523D02*
X147872800Y-144114761D01*
X147872800Y-144114761D02*
X147920419Y-144162380D01*
X104604419Y-68495895D02*
X103604419Y-68495895D01*
X104080609Y-68495895D02*
X104080609Y-69067323D01*
X104604419Y-69067323D02*
X103604419Y-69067323D01*
X103604419Y-69448276D02*
X103604419Y-70067323D01*
X103604419Y-70067323D02*
X103985371Y-69733990D01*
X103985371Y-69733990D02*
X103985371Y-69876847D01*
X103985371Y-69876847D02*
X104032990Y-69972085D01*
X104032990Y-69972085D02*
X104080609Y-70019704D01*
X104080609Y-70019704D02*
X104175847Y-70067323D01*
X104175847Y-70067323D02*
X104413942Y-70067323D01*
X104413942Y-70067323D02*
X104509180Y-70019704D01*
X104509180Y-70019704D02*
X104556800Y-69972085D01*
X104556800Y-69972085D02*
X104604419Y-69876847D01*
X104604419Y-69876847D02*
X104604419Y-69591133D01*
X104604419Y-69591133D02*
X104556800Y-69495895D01*
X104556800Y-69495895D02*
X104509180Y-69448276D01*
X129061466Y-89816319D02*
X129537656Y-89816319D01*
X129537656Y-89816319D02*
X129537656Y-88816319D01*
X128204323Y-89816319D02*
X128775751Y-89816319D01*
X128490037Y-89816319D02*
X128490037Y-88816319D01*
X128490037Y-88816319D02*
X128585275Y-88959176D01*
X128585275Y-88959176D02*
X128680513Y-89054414D01*
X128680513Y-89054414D02*
X128775751Y-89102033D01*
X136969619Y-72718705D02*
X135969619Y-72718705D01*
X135969619Y-72718705D02*
X135969619Y-72956800D01*
X135969619Y-72956800D02*
X136017238Y-73099657D01*
X136017238Y-73099657D02*
X136112476Y-73194895D01*
X136112476Y-73194895D02*
X136207714Y-73242514D01*
X136207714Y-73242514D02*
X136398190Y-73290133D01*
X136398190Y-73290133D02*
X136541047Y-73290133D01*
X136541047Y-73290133D02*
X136731523Y-73242514D01*
X136731523Y-73242514D02*
X136826761Y-73194895D01*
X136826761Y-73194895D02*
X136922000Y-73099657D01*
X136922000Y-73099657D02*
X136969619Y-72956800D01*
X136969619Y-72956800D02*
X136969619Y-72718705D01*
X136064857Y-73671086D02*
X136017238Y-73718705D01*
X136017238Y-73718705D02*
X135969619Y-73813943D01*
X135969619Y-73813943D02*
X135969619Y-74052038D01*
X135969619Y-74052038D02*
X136017238Y-74147276D01*
X136017238Y-74147276D02*
X136064857Y-74194895D01*
X136064857Y-74194895D02*
X136160095Y-74242514D01*
X136160095Y-74242514D02*
X136255333Y-74242514D01*
X136255333Y-74242514D02*
X136398190Y-74194895D01*
X136398190Y-74194895D02*
X136969619Y-73623467D01*
X136969619Y-73623467D02*
X136969619Y-74242514D01*
X114974666Y-89767580D02*
X115022285Y-89815200D01*
X115022285Y-89815200D02*
X115165142Y-89862819D01*
X115165142Y-89862819D02*
X115260380Y-89862819D01*
X115260380Y-89862819D02*
X115403237Y-89815200D01*
X115403237Y-89815200D02*
X115498475Y-89719961D01*
X115498475Y-89719961D02*
X115546094Y-89624723D01*
X115546094Y-89624723D02*
X115593713Y-89434247D01*
X115593713Y-89434247D02*
X115593713Y-89291390D01*
X115593713Y-89291390D02*
X115546094Y-89100914D01*
X115546094Y-89100914D02*
X115498475Y-89005676D01*
X115498475Y-89005676D02*
X115403237Y-88910438D01*
X115403237Y-88910438D02*
X115260380Y-88862819D01*
X115260380Y-88862819D02*
X115165142Y-88862819D01*
X115165142Y-88862819D02*
X115022285Y-88910438D01*
X115022285Y-88910438D02*
X114974666Y-88958057D01*
X114641332Y-88862819D02*
X114022285Y-88862819D01*
X114022285Y-88862819D02*
X114355618Y-89243771D01*
X114355618Y-89243771D02*
X114212761Y-89243771D01*
X114212761Y-89243771D02*
X114117523Y-89291390D01*
X114117523Y-89291390D02*
X114069904Y-89339009D01*
X114069904Y-89339009D02*
X114022285Y-89434247D01*
X114022285Y-89434247D02*
X114022285Y-89672342D01*
X114022285Y-89672342D02*
X114069904Y-89767580D01*
X114069904Y-89767580D02*
X114117523Y-89815200D01*
X114117523Y-89815200D02*
X114212761Y-89862819D01*
X114212761Y-89862819D02*
X114498475Y-89862819D01*
X114498475Y-89862819D02*
X114593713Y-89815200D01*
X114593713Y-89815200D02*
X114641332Y-89767580D01*
X129365333Y-99590819D02*
X129365333Y-100305104D01*
X129365333Y-100305104D02*
X129412952Y-100447961D01*
X129412952Y-100447961D02*
X129508190Y-100543200D01*
X129508190Y-100543200D02*
X129651047Y-100590819D01*
X129651047Y-100590819D02*
X129746285Y-100590819D01*
X128365333Y-100590819D02*
X128936761Y-100590819D01*
X128651047Y-100590819D02*
X128651047Y-99590819D01*
X128651047Y-99590819D02*
X128746285Y-99733676D01*
X128746285Y-99733676D02*
X128841523Y-99828914D01*
X128841523Y-99828914D02*
X128936761Y-99876533D01*
X124555466Y-80369580D02*
X124603085Y-80417200D01*
X124603085Y-80417200D02*
X124745942Y-80464819D01*
X124745942Y-80464819D02*
X124841180Y-80464819D01*
X124841180Y-80464819D02*
X124984037Y-80417200D01*
X124984037Y-80417200D02*
X125079275Y-80321961D01*
X125079275Y-80321961D02*
X125126894Y-80226723D01*
X125126894Y-80226723D02*
X125174513Y-80036247D01*
X125174513Y-80036247D02*
X125174513Y-79893390D01*
X125174513Y-79893390D02*
X125126894Y-79702914D01*
X125126894Y-79702914D02*
X125079275Y-79607676D01*
X125079275Y-79607676D02*
X124984037Y-79512438D01*
X124984037Y-79512438D02*
X124841180Y-79464819D01*
X124841180Y-79464819D02*
X124745942Y-79464819D01*
X124745942Y-79464819D02*
X124603085Y-79512438D01*
X124603085Y-79512438D02*
X124555466Y-79560057D01*
X123698323Y-79798152D02*
X123698323Y-80464819D01*
X123936418Y-79417200D02*
X124174513Y-80131485D01*
X124174513Y-80131485D02*
X123555466Y-80131485D01*
X129061466Y-73308380D02*
X129109085Y-73356000D01*
X129109085Y-73356000D02*
X129251942Y-73403619D01*
X129251942Y-73403619D02*
X129347180Y-73403619D01*
X129347180Y-73403619D02*
X129490037Y-73356000D01*
X129490037Y-73356000D02*
X129585275Y-73260761D01*
X129585275Y-73260761D02*
X129632894Y-73165523D01*
X129632894Y-73165523D02*
X129680513Y-72975047D01*
X129680513Y-72975047D02*
X129680513Y-72832190D01*
X129680513Y-72832190D02*
X129632894Y-72641714D01*
X129632894Y-72641714D02*
X129585275Y-72546476D01*
X129585275Y-72546476D02*
X129490037Y-72451238D01*
X129490037Y-72451238D02*
X129347180Y-72403619D01*
X129347180Y-72403619D02*
X129251942Y-72403619D01*
X129251942Y-72403619D02*
X129109085Y-72451238D01*
X129109085Y-72451238D02*
X129061466Y-72498857D01*
X128585275Y-73403619D02*
X128394799Y-73403619D01*
X128394799Y-73403619D02*
X128299561Y-73356000D01*
X128299561Y-73356000D02*
X128251942Y-73308380D01*
X128251942Y-73308380D02*
X128156704Y-73165523D01*
X128156704Y-73165523D02*
X128109085Y-72975047D01*
X128109085Y-72975047D02*
X128109085Y-72594095D01*
X128109085Y-72594095D02*
X128156704Y-72498857D01*
X128156704Y-72498857D02*
X128204323Y-72451238D01*
X128204323Y-72451238D02*
X128299561Y-72403619D01*
X128299561Y-72403619D02*
X128490037Y-72403619D01*
X128490037Y-72403619D02*
X128585275Y-72451238D01*
X128585275Y-72451238D02*
X128632894Y-72498857D01*
X128632894Y-72498857D02*
X128680513Y-72594095D01*
X128680513Y-72594095D02*
X128680513Y-72832190D01*
X128680513Y-72832190D02*
X128632894Y-72927428D01*
X128632894Y-72927428D02*
X128585275Y-72975047D01*
X128585275Y-72975047D02*
X128490037Y-73022666D01*
X128490037Y-73022666D02*
X128299561Y-73022666D01*
X128299561Y-73022666D02*
X128204323Y-72975047D01*
X128204323Y-72975047D02*
X128156704Y-72927428D01*
X128156704Y-72927428D02*
X128109085Y-72832190D01*
X174006009Y-72621428D02*
X174053628Y-72764285D01*
X174053628Y-72764285D02*
X174101247Y-72811904D01*
X174101247Y-72811904D02*
X174196485Y-72859523D01*
X174196485Y-72859523D02*
X174339342Y-72859523D01*
X174339342Y-72859523D02*
X174434580Y-72811904D01*
X174434580Y-72811904D02*
X174482200Y-72764285D01*
X174482200Y-72764285D02*
X174529819Y-72669047D01*
X174529819Y-72669047D02*
X174529819Y-72288095D01*
X174529819Y-72288095D02*
X173529819Y-72288095D01*
X173529819Y-72288095D02*
X173529819Y-72621428D01*
X173529819Y-72621428D02*
X173577438Y-72716666D01*
X173577438Y-72716666D02*
X173625057Y-72764285D01*
X173625057Y-72764285D02*
X173720295Y-72811904D01*
X173720295Y-72811904D02*
X173815533Y-72811904D01*
X173815533Y-72811904D02*
X173910771Y-72764285D01*
X173910771Y-72764285D02*
X173958390Y-72716666D01*
X173958390Y-72716666D02*
X174006009Y-72621428D01*
X174006009Y-72621428D02*
X174006009Y-72288095D01*
X174529819Y-73764285D02*
X174529819Y-73288095D01*
X174529819Y-73288095D02*
X173529819Y-73288095D01*
X174148866Y-74097619D02*
X174148866Y-74859524D01*
X174529819Y-74478571D02*
X173767914Y-74478571D01*
X174529819Y-75859523D02*
X174529819Y-75288095D01*
X174529819Y-75573809D02*
X173529819Y-75573809D01*
X173529819Y-75573809D02*
X173672676Y-75478571D01*
X173672676Y-75478571D02*
X173767914Y-75383333D01*
X173767914Y-75383333D02*
X173815533Y-75288095D01*
X135686704Y-92926819D02*
X135686704Y-93736342D01*
X135686704Y-93736342D02*
X135639085Y-93831580D01*
X135639085Y-93831580D02*
X135591466Y-93879200D01*
X135591466Y-93879200D02*
X135496228Y-93926819D01*
X135496228Y-93926819D02*
X135305752Y-93926819D01*
X135305752Y-93926819D02*
X135210514Y-93879200D01*
X135210514Y-93879200D02*
X135162895Y-93831580D01*
X135162895Y-93831580D02*
X135115276Y-93736342D01*
X135115276Y-93736342D02*
X135115276Y-92926819D01*
X134115276Y-93926819D02*
X134686704Y-93926819D01*
X134400990Y-93926819D02*
X134400990Y-92926819D01*
X134400990Y-92926819D02*
X134496228Y-93069676D01*
X134496228Y-93069676D02*
X134591466Y-93164914D01*
X134591466Y-93164914D02*
X134686704Y-93212533D01*
X153600819Y-68518095D02*
X152600819Y-68518095D01*
X153077009Y-68518095D02*
X153077009Y-69089523D01*
X153600819Y-69089523D02*
X152600819Y-69089523D01*
X153600819Y-70089523D02*
X153600819Y-69518095D01*
X153600819Y-69803809D02*
X152600819Y-69803809D01*
X152600819Y-69803809D02*
X152743676Y-69708571D01*
X152743676Y-69708571D02*
X152838914Y-69613333D01*
X152838914Y-69613333D02*
X152886533Y-69518095D01*
X119292666Y-76305580D02*
X119340285Y-76353200D01*
X119340285Y-76353200D02*
X119483142Y-76400819D01*
X119483142Y-76400819D02*
X119578380Y-76400819D01*
X119578380Y-76400819D02*
X119721237Y-76353200D01*
X119721237Y-76353200D02*
X119816475Y-76257961D01*
X119816475Y-76257961D02*
X119864094Y-76162723D01*
X119864094Y-76162723D02*
X119911713Y-75972247D01*
X119911713Y-75972247D02*
X119911713Y-75829390D01*
X119911713Y-75829390D02*
X119864094Y-75638914D01*
X119864094Y-75638914D02*
X119816475Y-75543676D01*
X119816475Y-75543676D02*
X119721237Y-75448438D01*
X119721237Y-75448438D02*
X119578380Y-75400819D01*
X119578380Y-75400819D02*
X119483142Y-75400819D01*
X119483142Y-75400819D02*
X119340285Y-75448438D01*
X119340285Y-75448438D02*
X119292666Y-75496057D01*
X118340285Y-76400819D02*
X118911713Y-76400819D01*
X118625999Y-76400819D02*
X118625999Y-75400819D01*
X118625999Y-75400819D02*
X118721237Y-75543676D01*
X118721237Y-75543676D02*
X118816475Y-75638914D01*
X118816475Y-75638914D02*
X118911713Y-75686533D01*
X136969619Y-77544705D02*
X135969619Y-77544705D01*
X135969619Y-77544705D02*
X135969619Y-77782800D01*
X135969619Y-77782800D02*
X136017238Y-77925657D01*
X136017238Y-77925657D02*
X136112476Y-78020895D01*
X136112476Y-78020895D02*
X136207714Y-78068514D01*
X136207714Y-78068514D02*
X136398190Y-78116133D01*
X136398190Y-78116133D02*
X136541047Y-78116133D01*
X136541047Y-78116133D02*
X136731523Y-78068514D01*
X136731523Y-78068514D02*
X136826761Y-78020895D01*
X136826761Y-78020895D02*
X136922000Y-77925657D01*
X136922000Y-77925657D02*
X136969619Y-77782800D01*
X136969619Y-77782800D02*
X136969619Y-77544705D01*
X135969619Y-78449467D02*
X135969619Y-79068514D01*
X135969619Y-79068514D02*
X136350571Y-78735181D01*
X136350571Y-78735181D02*
X136350571Y-78878038D01*
X136350571Y-78878038D02*
X136398190Y-78973276D01*
X136398190Y-78973276D02*
X136445809Y-79020895D01*
X136445809Y-79020895D02*
X136541047Y-79068514D01*
X136541047Y-79068514D02*
X136779142Y-79068514D01*
X136779142Y-79068514D02*
X136874380Y-79020895D01*
X136874380Y-79020895D02*
X136922000Y-78973276D01*
X136922000Y-78973276D02*
X136969619Y-78878038D01*
X136969619Y-78878038D02*
X136969619Y-78592324D01*
X136969619Y-78592324D02*
X136922000Y-78497086D01*
X136922000Y-78497086D02*
X136874380Y-78449467D01*
X153604419Y-126495895D02*
X152604419Y-126495895D01*
X153080609Y-126495895D02*
X153080609Y-127067323D01*
X153604419Y-127067323D02*
X152604419Y-127067323D01*
X152699657Y-127495895D02*
X152652038Y-127543514D01*
X152652038Y-127543514D02*
X152604419Y-127638752D01*
X152604419Y-127638752D02*
X152604419Y-127876847D01*
X152604419Y-127876847D02*
X152652038Y-127972085D01*
X152652038Y-127972085D02*
X152699657Y-128019704D01*
X152699657Y-128019704D02*
X152794895Y-128067323D01*
X152794895Y-128067323D02*
X152890133Y-128067323D01*
X152890133Y-128067323D02*
X153032990Y-128019704D01*
X153032990Y-128019704D02*
X153604419Y-127448276D01*
X153604419Y-127448276D02*
X153604419Y-128067323D01*
X124606266Y-84687580D02*
X124653885Y-84735200D01*
X124653885Y-84735200D02*
X124796742Y-84782819D01*
X124796742Y-84782819D02*
X124891980Y-84782819D01*
X124891980Y-84782819D02*
X125034837Y-84735200D01*
X125034837Y-84735200D02*
X125130075Y-84639961D01*
X125130075Y-84639961D02*
X125177694Y-84544723D01*
X125177694Y-84544723D02*
X125225313Y-84354247D01*
X125225313Y-84354247D02*
X125225313Y-84211390D01*
X125225313Y-84211390D02*
X125177694Y-84020914D01*
X125177694Y-84020914D02*
X125130075Y-83925676D01*
X125130075Y-83925676D02*
X125034837Y-83830438D01*
X125034837Y-83830438D02*
X124891980Y-83782819D01*
X124891980Y-83782819D02*
X124796742Y-83782819D01*
X124796742Y-83782819D02*
X124653885Y-83830438D01*
X124653885Y-83830438D02*
X124606266Y-83878057D01*
X124034837Y-84211390D02*
X124130075Y-84163771D01*
X124130075Y-84163771D02*
X124177694Y-84116152D01*
X124177694Y-84116152D02*
X124225313Y-84020914D01*
X124225313Y-84020914D02*
X124225313Y-83973295D01*
X124225313Y-83973295D02*
X124177694Y-83878057D01*
X124177694Y-83878057D02*
X124130075Y-83830438D01*
X124130075Y-83830438D02*
X124034837Y-83782819D01*
X124034837Y-83782819D02*
X123844361Y-83782819D01*
X123844361Y-83782819D02*
X123749123Y-83830438D01*
X123749123Y-83830438D02*
X123701504Y-83878057D01*
X123701504Y-83878057D02*
X123653885Y-83973295D01*
X123653885Y-83973295D02*
X123653885Y-84020914D01*
X123653885Y-84020914D02*
X123701504Y-84116152D01*
X123701504Y-84116152D02*
X123749123Y-84163771D01*
X123749123Y-84163771D02*
X123844361Y-84211390D01*
X123844361Y-84211390D02*
X124034837Y-84211390D01*
X124034837Y-84211390D02*
X124130075Y-84259009D01*
X124130075Y-84259009D02*
X124177694Y-84306628D01*
X124177694Y-84306628D02*
X124225313Y-84401866D01*
X124225313Y-84401866D02*
X124225313Y-84592342D01*
X124225313Y-84592342D02*
X124177694Y-84687580D01*
X124177694Y-84687580D02*
X124130075Y-84735200D01*
X124130075Y-84735200D02*
X124034837Y-84782819D01*
X124034837Y-84782819D02*
X123844361Y-84782819D01*
X123844361Y-84782819D02*
X123749123Y-84735200D01*
X123749123Y-84735200D02*
X123701504Y-84687580D01*
X123701504Y-84687580D02*
X123653885Y-84592342D01*
X123653885Y-84592342D02*
X123653885Y-84401866D01*
X123653885Y-84401866D02*
X123701504Y-84306628D01*
X123701504Y-84306628D02*
X123749123Y-84259009D01*
X123749123Y-84259009D02*
X123844361Y-84211390D01*
X132875257Y-102619980D02*
X132922876Y-102667600D01*
X132922876Y-102667600D02*
X133065733Y-102715219D01*
X133065733Y-102715219D02*
X133160971Y-102715219D01*
X133160971Y-102715219D02*
X133303828Y-102667600D01*
X133303828Y-102667600D02*
X133399066Y-102572361D01*
X133399066Y-102572361D02*
X133446685Y-102477123D01*
X133446685Y-102477123D02*
X133494304Y-102286647D01*
X133494304Y-102286647D02*
X133494304Y-102143790D01*
X133494304Y-102143790D02*
X133446685Y-101953314D01*
X133446685Y-101953314D02*
X133399066Y-101858076D01*
X133399066Y-101858076D02*
X133303828Y-101762838D01*
X133303828Y-101762838D02*
X133160971Y-101715219D01*
X133160971Y-101715219D02*
X133065733Y-101715219D01*
X133065733Y-101715219D02*
X132922876Y-101762838D01*
X132922876Y-101762838D02*
X132875257Y-101810457D01*
X131922876Y-102715219D02*
X132494304Y-102715219D01*
X132208590Y-102715219D02*
X132208590Y-101715219D01*
X132208590Y-101715219D02*
X132303828Y-101858076D01*
X132303828Y-101858076D02*
X132399066Y-101953314D01*
X132399066Y-101953314D02*
X132494304Y-102000933D01*
X131589542Y-101715219D02*
X130970495Y-101715219D01*
X130970495Y-101715219D02*
X131303828Y-102096171D01*
X131303828Y-102096171D02*
X131160971Y-102096171D01*
X131160971Y-102096171D02*
X131065733Y-102143790D01*
X131065733Y-102143790D02*
X131018114Y-102191409D01*
X131018114Y-102191409D02*
X130970495Y-102286647D01*
X130970495Y-102286647D02*
X130970495Y-102524742D01*
X130970495Y-102524742D02*
X131018114Y-102619980D01*
X131018114Y-102619980D02*
X131065733Y-102667600D01*
X131065733Y-102667600D02*
X131160971Y-102715219D01*
X131160971Y-102715219D02*
X131446685Y-102715219D01*
X131446685Y-102715219D02*
X131541923Y-102667600D01*
X131541923Y-102667600D02*
X131589542Y-102619980D01*
X110908666Y-74496819D02*
X111241999Y-74020628D01*
X111480094Y-74496819D02*
X111480094Y-73496819D01*
X111480094Y-73496819D02*
X111099142Y-73496819D01*
X111099142Y-73496819D02*
X111003904Y-73544438D01*
X111003904Y-73544438D02*
X110956285Y-73592057D01*
X110956285Y-73592057D02*
X110908666Y-73687295D01*
X110908666Y-73687295D02*
X110908666Y-73830152D01*
X110908666Y-73830152D02*
X110956285Y-73925390D01*
X110956285Y-73925390D02*
X111003904Y-73973009D01*
X111003904Y-73973009D02*
X111099142Y-74020628D01*
X111099142Y-74020628D02*
X111480094Y-74020628D01*
X109956285Y-74496819D02*
X110527713Y-74496819D01*
X110241999Y-74496819D02*
X110241999Y-73496819D01*
X110241999Y-73496819D02*
X110337237Y-73639676D01*
X110337237Y-73639676D02*
X110432475Y-73734914D01*
X110432475Y-73734914D02*
X110527713Y-73782533D01*
X113274133Y-76467619D02*
X113274133Y-77181904D01*
X113274133Y-77181904D02*
X113321752Y-77324761D01*
X113321752Y-77324761D02*
X113416990Y-77420000D01*
X113416990Y-77420000D02*
X113559847Y-77467619D01*
X113559847Y-77467619D02*
X113655085Y-77467619D01*
X112845561Y-76562857D02*
X112797942Y-76515238D01*
X112797942Y-76515238D02*
X112702704Y-76467619D01*
X112702704Y-76467619D02*
X112464609Y-76467619D01*
X112464609Y-76467619D02*
X112369371Y-76515238D01*
X112369371Y-76515238D02*
X112321752Y-76562857D01*
X112321752Y-76562857D02*
X112274133Y-76658095D01*
X112274133Y-76658095D02*
X112274133Y-76753333D01*
X112274133Y-76753333D02*
X112321752Y-76896190D01*
X112321752Y-76896190D02*
X112893180Y-77467619D01*
X112893180Y-77467619D02*
X112274133Y-77467619D01*
X124525066Y-93069580D02*
X124572685Y-93117200D01*
X124572685Y-93117200D02*
X124715542Y-93164819D01*
X124715542Y-93164819D02*
X124810780Y-93164819D01*
X124810780Y-93164819D02*
X124953637Y-93117200D01*
X124953637Y-93117200D02*
X125048875Y-93021961D01*
X125048875Y-93021961D02*
X125096494Y-92926723D01*
X125096494Y-92926723D02*
X125144113Y-92736247D01*
X125144113Y-92736247D02*
X125144113Y-92593390D01*
X125144113Y-92593390D02*
X125096494Y-92402914D01*
X125096494Y-92402914D02*
X125048875Y-92307676D01*
X125048875Y-92307676D02*
X124953637Y-92212438D01*
X124953637Y-92212438D02*
X124810780Y-92164819D01*
X124810780Y-92164819D02*
X124715542Y-92164819D01*
X124715542Y-92164819D02*
X124572685Y-92212438D01*
X124572685Y-92212438D02*
X124525066Y-92260057D01*
X124191732Y-92164819D02*
X123525066Y-92164819D01*
X123525066Y-92164819D02*
X123953637Y-93164819D01*
X134532666Y-89507219D02*
X134865999Y-89031028D01*
X135104094Y-89507219D02*
X135104094Y-88507219D01*
X135104094Y-88507219D02*
X134723142Y-88507219D01*
X134723142Y-88507219D02*
X134627904Y-88554838D01*
X134627904Y-88554838D02*
X134580285Y-88602457D01*
X134580285Y-88602457D02*
X134532666Y-88697695D01*
X134532666Y-88697695D02*
X134532666Y-88840552D01*
X134532666Y-88840552D02*
X134580285Y-88935790D01*
X134580285Y-88935790D02*
X134627904Y-88983409D01*
X134627904Y-88983409D02*
X134723142Y-89031028D01*
X134723142Y-89031028D02*
X135104094Y-89031028D01*
X134151713Y-88602457D02*
X134104094Y-88554838D01*
X134104094Y-88554838D02*
X134008856Y-88507219D01*
X134008856Y-88507219D02*
X133770761Y-88507219D01*
X133770761Y-88507219D02*
X133675523Y-88554838D01*
X133675523Y-88554838D02*
X133627904Y-88602457D01*
X133627904Y-88602457D02*
X133580285Y-88697695D01*
X133580285Y-88697695D02*
X133580285Y-88792933D01*
X133580285Y-88792933D02*
X133627904Y-88935790D01*
X133627904Y-88935790D02*
X134199332Y-89507219D01*
X134199332Y-89507219D02*
X133580285Y-89507219D01*
X136374094Y-101260819D02*
X136374094Y-100260819D01*
X136374094Y-100260819D02*
X136135999Y-100260819D01*
X136135999Y-100260819D02*
X135993142Y-100308438D01*
X135993142Y-100308438D02*
X135897904Y-100403676D01*
X135897904Y-100403676D02*
X135850285Y-100498914D01*
X135850285Y-100498914D02*
X135802666Y-100689390D01*
X135802666Y-100689390D02*
X135802666Y-100832247D01*
X135802666Y-100832247D02*
X135850285Y-101022723D01*
X135850285Y-101022723D02*
X135897904Y-101117961D01*
X135897904Y-101117961D02*
X135993142Y-101213200D01*
X135993142Y-101213200D02*
X136135999Y-101260819D01*
X136135999Y-101260819D02*
X136374094Y-101260819D01*
X134945523Y-100594152D02*
X134945523Y-101260819D01*
X135183618Y-100213200D02*
X135421713Y-100927485D01*
X135421713Y-100927485D02*
X134802666Y-100927485D01*
X124555466Y-82401580D02*
X124603085Y-82449200D01*
X124603085Y-82449200D02*
X124745942Y-82496819D01*
X124745942Y-82496819D02*
X124841180Y-82496819D01*
X124841180Y-82496819D02*
X124984037Y-82449200D01*
X124984037Y-82449200D02*
X125079275Y-82353961D01*
X125079275Y-82353961D02*
X125126894Y-82258723D01*
X125126894Y-82258723D02*
X125174513Y-82068247D01*
X125174513Y-82068247D02*
X125174513Y-81925390D01*
X125174513Y-81925390D02*
X125126894Y-81734914D01*
X125126894Y-81734914D02*
X125079275Y-81639676D01*
X125079275Y-81639676D02*
X124984037Y-81544438D01*
X124984037Y-81544438D02*
X124841180Y-81496819D01*
X124841180Y-81496819D02*
X124745942Y-81496819D01*
X124745942Y-81496819D02*
X124603085Y-81544438D01*
X124603085Y-81544438D02*
X124555466Y-81592057D01*
X123650704Y-81496819D02*
X124126894Y-81496819D01*
X124126894Y-81496819D02*
X124174513Y-81973009D01*
X124174513Y-81973009D02*
X124126894Y-81925390D01*
X124126894Y-81925390D02*
X124031656Y-81877771D01*
X124031656Y-81877771D02*
X123793561Y-81877771D01*
X123793561Y-81877771D02*
X123698323Y-81925390D01*
X123698323Y-81925390D02*
X123650704Y-81973009D01*
X123650704Y-81973009D02*
X123603085Y-82068247D01*
X123603085Y-82068247D02*
X123603085Y-82306342D01*
X123603085Y-82306342D02*
X123650704Y-82401580D01*
X123650704Y-82401580D02*
X123698323Y-82449200D01*
X123698323Y-82449200D02*
X123793561Y-82496819D01*
X123793561Y-82496819D02*
X124031656Y-82496819D01*
X124031656Y-82496819D02*
X124126894Y-82449200D01*
X124126894Y-82449200D02*
X124174513Y-82401580D01*
D12*
%TO.C,C11*%
X132894800Y-94718220D02*
X132894800Y-94999380D01*
X131874800Y-94718220D02*
X131874800Y-94999380D01*
%TO.C,C12*%
X137811952Y-93749800D02*
X137289448Y-93749800D01*
X137811952Y-92279800D02*
X137289448Y-92279800D01*
%TO.C,J4*%
X159814000Y-123718000D02*
X154614000Y-123718000D01*
X159814000Y-123148000D02*
X159814000Y-123718000D01*
X159814000Y-120608000D02*
X159814000Y-121628000D01*
X159814000Y-118068000D02*
X159814000Y-119088000D01*
X159814000Y-115528000D02*
X159814000Y-116548000D01*
X159814000Y-112988000D02*
X159814000Y-114008000D01*
X159814000Y-110448000D02*
X159814000Y-111468000D01*
X159814000Y-107908000D02*
X159814000Y-108928000D01*
X159814000Y-105368000D02*
X159814000Y-106388000D01*
X159814000Y-102828000D02*
X159814000Y-103848000D01*
X159814000Y-100288000D02*
X159814000Y-101308000D01*
X159814000Y-97748000D02*
X159814000Y-98768000D01*
X159814000Y-95208000D02*
X159814000Y-96228000D01*
X159814000Y-92668000D02*
X159814000Y-93688000D01*
X159814000Y-90128000D02*
X159814000Y-91148000D01*
X159814000Y-87588000D02*
X159814000Y-88608000D01*
X159814000Y-85048000D02*
X159814000Y-86068000D01*
X159814000Y-82508000D02*
X159814000Y-83528000D01*
X159814000Y-79968000D02*
X159814000Y-80988000D01*
X159814000Y-77428000D02*
X159814000Y-78448000D01*
X159814000Y-74888000D02*
X159814000Y-75908000D01*
X159814000Y-72798000D02*
X159814000Y-73368000D01*
X159814000Y-72798000D02*
X154614000Y-72798000D01*
X154614000Y-123148000D02*
X154614000Y-123718000D01*
X154614000Y-120608000D02*
X154614000Y-121628000D01*
X154614000Y-118068000D02*
X154614000Y-119088000D01*
X154614000Y-115528000D02*
X154614000Y-116548000D01*
X154614000Y-112988000D02*
X154614000Y-114008000D01*
X154614000Y-110448000D02*
X154614000Y-111468000D01*
X154614000Y-107908000D02*
X154614000Y-108928000D01*
X154614000Y-105368000D02*
X154614000Y-106388000D01*
X154614000Y-102828000D02*
X154614000Y-103848000D01*
X154614000Y-100288000D02*
X154614000Y-101308000D01*
X154614000Y-97748000D02*
X154614000Y-98768000D01*
X154614000Y-95208000D02*
X154614000Y-96228000D01*
X154614000Y-92668000D02*
X154614000Y-93688000D01*
X154614000Y-90128000D02*
X154614000Y-91148000D01*
X154614000Y-87588000D02*
X154614000Y-88608000D01*
X154614000Y-85048000D02*
X154614000Y-86068000D01*
X154614000Y-82508000D02*
X154614000Y-83528000D01*
X154614000Y-79968000D02*
X154614000Y-80988000D01*
X154614000Y-77428000D02*
X154614000Y-78448000D01*
X154614000Y-74888000D02*
X154614000Y-75908000D01*
X154614000Y-73368000D02*
X153254000Y-73368000D01*
X154614000Y-72798000D02*
X154614000Y-73368000D01*
%TO.C,BL-1*%
X174575000Y-66100000D02*
X174575000Y-66100000D01*
X174575000Y-70700000D02*
X174575000Y-70700000D01*
%TO.C,Q1*%
X127406800Y-76123800D02*
X127406800Y-75473800D01*
X127406800Y-76123800D02*
X127406800Y-76773800D01*
X124286800Y-76123800D02*
X124286800Y-74448800D01*
X124286800Y-76123800D02*
X124286800Y-76773800D01*
%TO.C,C10*%
X121927252Y-91159000D02*
X121404748Y-91159000D01*
X121927252Y-89689000D02*
X121404748Y-89689000D01*
%TO.C,C6*%
X121993252Y-87095000D02*
X121470748Y-87095000D01*
X121993252Y-85625000D02*
X121470748Y-85625000D01*
%TO.C,L2*%
X139091600Y-95420078D02*
X139091600Y-96219322D01*
X137971600Y-95420078D02*
X137971600Y-96219322D01*
%TO.C,C2*%
X121988252Y-78713000D02*
X121465748Y-78713000D01*
X121988252Y-77243000D02*
X121465748Y-77243000D01*
%TO.C,D1*%
X130180800Y-80642800D02*
X130180800Y-76632800D01*
X132180800Y-80642800D02*
X130180800Y-80642800D01*
X132180800Y-80642800D02*
X132180800Y-76632800D01*
%TO.C,L1*%
X128334800Y-87267622D02*
X128334800Y-86468378D01*
X129454800Y-87267622D02*
X129454800Y-86468378D01*
%TO.C,D2*%
X135482800Y-71096800D02*
X135482800Y-75106800D01*
X133482800Y-71096800D02*
X135482800Y-71096800D01*
X133482800Y-71096800D02*
X133482800Y-75106800D01*
%TO.C,C3*%
X115492200Y-86708348D02*
X115492200Y-87230852D01*
X114022200Y-86708348D02*
X114022200Y-87230852D01*
%TO.C,J1*%
X127509900Y-99199800D02*
X127509900Y-94079800D01*
X131029900Y-99199800D02*
X127509900Y-99199800D01*
X131189900Y-97889800D02*
X131189900Y-97889800D01*
X127509900Y-94079800D02*
X131029900Y-94079800D01*
X131029900Y-94079800D02*
X131029900Y-99199800D01*
%TO.C,C4*%
X121993252Y-80745000D02*
X121470748Y-80745000D01*
X121993252Y-79275000D02*
X121470748Y-79275000D01*
%TO.C,C9*%
X129629800Y-74973548D02*
X129629800Y-75496052D01*
X128159800Y-74973548D02*
X128159800Y-75496052D01*
%TO.C,BL+1*%
X174575000Y-71750000D02*
X174575000Y-71750000D01*
X174575000Y-76350000D02*
X174575000Y-76350000D01*
%TO.C,U1*%
X135483600Y-97333200D02*
X136283600Y-97333200D01*
X135483600Y-97333200D02*
X134683600Y-97333200D01*
X135483600Y-94213200D02*
X137283600Y-94213200D01*
X135483600Y-94213200D02*
X134683600Y-94213200D01*
%TO.C,C1*%
X121988252Y-76681000D02*
X121465748Y-76681000D01*
X121988252Y-75211000D02*
X121465748Y-75211000D01*
%TO.C,D3*%
X135482800Y-75922800D02*
X135482800Y-79932800D01*
X133482800Y-75922800D02*
X135482800Y-75922800D01*
X133482800Y-75922800D02*
X133482800Y-79932800D01*
%TO.C,C8*%
X121993252Y-85063000D02*
X121470748Y-85063000D01*
X121993252Y-83593000D02*
X121470748Y-83593000D01*
%TO.C,C13*%
X131497400Y-100017252D02*
X131497400Y-99494748D01*
X132967400Y-100017252D02*
X132967400Y-99494748D01*
%TO.C,R1*%
X110969064Y-76427000D02*
X110514936Y-76427000D01*
X110969064Y-74957000D02*
X110514936Y-74957000D01*
%TO.C,J2*%
X108740000Y-94860000D02*
X108740000Y-77860000D01*
X113490000Y-94860000D02*
X108740000Y-94860000D01*
X108740000Y-77860000D02*
X113490000Y-77860000D01*
X113490000Y-77860000D02*
X113490000Y-94860000D01*
%TO.C,C7*%
X121927252Y-93445000D02*
X121404748Y-93445000D01*
X121927252Y-91975000D02*
X121404748Y-91975000D01*
%TO.C,R2*%
X133631000Y-91565464D02*
X133631000Y-91111336D01*
X135101000Y-91565464D02*
X135101000Y-91111336D01*
%TO.C,D4*%
X133276000Y-97806000D02*
X137286000Y-97806000D01*
X133276000Y-99806000D02*
X133276000Y-97806000D01*
X133276000Y-99806000D02*
X137286000Y-99806000D01*
%TO.C,C5*%
X121993252Y-82777000D02*
X121470748Y-82777000D01*
X121993252Y-81307000D02*
X121470748Y-81307000D01*
%TD*%
%LPC*%
D13*
%TO.C,TP2*%
X121158000Y-101600000D03*
%TD*%
%TO.C,TP7*%
X147320000Y-150114000D03*
%TD*%
%TO.C,TP5*%
X135636000Y-150114000D03*
%TD*%
%TO.C,TP3*%
X126238000Y-101600000D03*
%TD*%
%TO.C,TP4*%
X153162000Y-150114000D03*
%TD*%
%TO.C,TP6*%
X141478000Y-150114000D03*
%TD*%
%TO.C,TP1*%
X136906000Y-106934000D03*
%TD*%
D14*
%TO.C,C11*%
X132384800Y-94083800D03*
X132384800Y-95633800D03*
%TD*%
D15*
%TO.C,C12*%
X138500700Y-93014800D03*
X136600700Y-93014800D03*
%TD*%
D16*
%TO.C,J4*%
X154694000Y-74128000D03*
X159734000Y-74128000D03*
X154694000Y-76668000D03*
X159734000Y-76668000D03*
X154694000Y-79208000D03*
X159734000Y-79208000D03*
X154694000Y-81748000D03*
X159734000Y-81748000D03*
X154694000Y-84288000D03*
X159734000Y-84288000D03*
X154694000Y-86828000D03*
X159734000Y-86828000D03*
X154694000Y-89368000D03*
X159734000Y-89368000D03*
X154694000Y-91908000D03*
X159734000Y-91908000D03*
X154694000Y-94448000D03*
X159734000Y-94448000D03*
X154694000Y-96988000D03*
X159734000Y-96988000D03*
X154694000Y-99528000D03*
X159734000Y-99528000D03*
X154694000Y-102068000D03*
X159734000Y-102068000D03*
X154694000Y-104608000D03*
X159734000Y-104608000D03*
X154694000Y-107148000D03*
X159734000Y-107148000D03*
X154694000Y-109688000D03*
X159734000Y-109688000D03*
X154694000Y-112228000D03*
X159734000Y-112228000D03*
X154694000Y-114768000D03*
X159734000Y-114768000D03*
X154694000Y-117308000D03*
X159734000Y-117308000D03*
X154694000Y-119848000D03*
X159734000Y-119848000D03*
X154694000Y-122388000D03*
X159734000Y-122388000D03*
%TD*%
D17*
%TO.C,BL-1*%
X175450000Y-66600000D03*
X175450000Y-70200000D03*
X176900000Y-66600000D03*
X176900000Y-70200000D03*
%TD*%
D18*
%TO.C,Q1*%
X124896800Y-75186300D03*
X126796800Y-75186300D03*
X125846800Y-77061300D03*
%TD*%
D15*
%TO.C,C10*%
X122616000Y-90424000D03*
X120716000Y-90424000D03*
%TD*%
D19*
%TO.C,H4*%
X108213600Y-127257800D03*
%TD*%
D15*
%TO.C,C6*%
X122682000Y-86360000D03*
X120782000Y-86360000D03*
%TD*%
D20*
%TO.C,L2*%
X138531600Y-94757200D03*
X138531600Y-96882200D03*
%TD*%
D15*
%TO.C,C2*%
X122677000Y-77978000D03*
X120777000Y-77978000D03*
%TD*%
D21*
%TO.C,D1*%
X131180800Y-79932800D03*
X131180800Y-76632800D03*
%TD*%
D22*
%TO.C,J3*%
X143455000Y-146460000D03*
X143455000Y-141960000D03*
D23*
X146030000Y-142960000D03*
X146030000Y-143460000D03*
X146030000Y-143960000D03*
X146030000Y-144460000D03*
X146030000Y-144960000D03*
X146030000Y-145460000D03*
%TD*%
D19*
%TO.C,H3*%
X108213600Y-69257800D03*
%TD*%
D24*
%TO.C,L1*%
X128894800Y-87930500D03*
X128894800Y-85805500D03*
%TD*%
D25*
%TO.C,D2*%
X134482800Y-71806800D03*
X134482800Y-75106800D03*
%TD*%
D26*
%TO.C,C3*%
X114757200Y-86019600D03*
X114757200Y-87919600D03*
%TD*%
D22*
%TO.C,J1*%
X128014900Y-98889800D03*
X128014900Y-94389800D03*
D23*
X130589900Y-97889800D03*
X130589900Y-97389800D03*
X130589900Y-96889800D03*
X130589900Y-96389800D03*
X130589900Y-95889800D03*
X130589900Y-95389800D03*
%TD*%
D15*
%TO.C,C4*%
X122682000Y-80010000D03*
X120782000Y-80010000D03*
%TD*%
D26*
%TO.C,C9*%
X128894800Y-74284800D03*
X128894800Y-76184800D03*
%TD*%
D17*
%TO.C,BL+1*%
X175450000Y-72250000D03*
X175450000Y-75850000D03*
X176900000Y-72250000D03*
X176900000Y-75850000D03*
%TD*%
D27*
%TO.C,U1*%
X136621100Y-94823200D03*
X136621100Y-95773200D03*
X136621100Y-96723200D03*
X134346100Y-96723200D03*
X134346100Y-95773200D03*
X134346100Y-94823200D03*
%TD*%
D19*
%TO.C,H1*%
X157210000Y-69280000D03*
%TD*%
D15*
%TO.C,C1*%
X122677000Y-75946000D03*
X120777000Y-75946000D03*
%TD*%
D25*
%TO.C,D3*%
X134482800Y-76632800D03*
X134482800Y-79932800D03*
%TD*%
D19*
%TO.C,H2*%
X157213600Y-127257800D03*
%TD*%
D15*
%TO.C,C8*%
X122682000Y-84328000D03*
X120782000Y-84328000D03*
%TD*%
D28*
%TO.C,C13*%
X132232400Y-100706000D03*
X132232400Y-98806000D03*
%TD*%
D29*
%TO.C,R1*%
X111654500Y-75692000D03*
X109829500Y-75692000D03*
%TD*%
D30*
%TO.C,J2*%
X110390000Y-93760000D03*
X110390000Y-78960000D03*
D31*
X112740000Y-80610000D03*
X112740000Y-81110000D03*
X112740000Y-81610000D03*
X112740000Y-82110000D03*
X112740000Y-82610000D03*
X112740000Y-83110000D03*
X112740000Y-83610000D03*
X112740000Y-84110000D03*
X112740000Y-84610000D03*
X112740000Y-85110000D03*
X112740000Y-85610000D03*
X112740000Y-86110000D03*
X112740000Y-86610000D03*
X112740000Y-87110000D03*
X112740000Y-87610000D03*
X112740000Y-88110000D03*
X112740000Y-88610000D03*
X112740000Y-89110000D03*
X112740000Y-89610000D03*
X112740000Y-90110000D03*
X112740000Y-90610000D03*
X112740000Y-91110000D03*
X112740000Y-91610000D03*
X112740000Y-92110000D03*
%TD*%
D15*
%TO.C,C7*%
X122616000Y-92710000D03*
X120716000Y-92710000D03*
%TD*%
D32*
%TO.C,R2*%
X134366000Y-92250900D03*
X134366000Y-90425900D03*
%TD*%
D33*
%TO.C,D4*%
X133986000Y-98806000D03*
X137286000Y-98806000D03*
%TD*%
D15*
%TO.C,C5*%
X122682000Y-82042000D03*
X120782000Y-82042000D03*
%TD*%
%LPD*%
M02*
