%TF.GenerationSoftware,KiCad,Pcbnew,7.0.9-7.0.9~ubuntu22.04.1*%
%TF.CreationDate,2023-12-13T16:55:42-08:00*%
%TF.ProjectId,piEreader,70694572-6561-4646-9572-2e6b69636164,rev?*%
%TF.SameCoordinates,Original*%
%TF.FileFunction,Soldermask,Bot*%
%TF.FilePolarity,Negative*%
%FSLAX46Y46*%
G04 Gerber Fmt 4.6, Leading zero omitted, Abs format (unit mm)*
G04 Created by KiCad (PCBNEW 7.0.9-7.0.9~ubuntu22.04.1) date 2023-12-13 16:55:42*
%MOMM*%
%LPD*%
G01*
G04 APERTURE LIST*
G04 Aperture macros list*
%AMRoundRect*
0 Rectangle with rounded corners*
0 $1 Rounding radius*
0 $2 $3 $4 $5 $6 $7 $8 $9 X,Y pos of 4 corners*
0 Add a 4 corners polygon primitive as box body*
4,1,4,$2,$3,$4,$5,$6,$7,$8,$9,$2,$3,0*
0 Add four circle primitives for the rounded corners*
1,1,$1+$1,$2,$3*
1,1,$1+$1,$4,$5*
1,1,$1+$1,$6,$7*
1,1,$1+$1,$8,$9*
0 Add four rect primitives between the rounded corners*
20,1,$1+$1,$2,$3,$4,$5,0*
20,1,$1+$1,$4,$5,$6,$7,0*
20,1,$1+$1,$6,$7,$8,$9,0*
20,1,$1+$1,$8,$9,$2,$3,0*%
G04 Aperture macros list end*
%ADD10C,3.000000*%
%ADD11RoundRect,0.225000X-0.250000X0.225000X-0.250000X-0.225000X0.250000X-0.225000X0.250000X0.225000X0*%
%ADD12RoundRect,0.250000X0.250000X0.475000X-0.250000X0.475000X-0.250000X-0.475000X0.250000X-0.475000X0*%
%ADD13R,3.000000X1.000000*%
%ADD14R,1.050000X1.400000*%
%ADD15RoundRect,0.150000X-0.150000X0.587500X-0.150000X-0.587500X0.150000X-0.587500X0.150000X0.587500X0*%
%ADD16C,6.000000*%
%ADD17RoundRect,0.218750X-0.381250X0.218750X-0.381250X-0.218750X0.381250X-0.218750X0.381250X0.218750X0*%
%ADD18RoundRect,0.225000X0.375000X-0.225000X0.375000X0.225000X-0.375000X0.225000X-0.375000X-0.225000X0*%
%ADD19R,0.800000X0.400000*%
%ADD20R,0.650000X0.250000*%
%ADD21RoundRect,0.218750X0.381250X-0.218750X0.381250X0.218750X-0.381250X0.218750X-0.381250X-0.218750X0*%
%ADD22RoundRect,0.225000X-0.375000X0.225000X-0.375000X-0.225000X0.375000X-0.225000X0.375000X0.225000X0*%
%ADD23RoundRect,0.250000X-0.475000X0.250000X-0.475000X-0.250000X0.475000X-0.250000X0.475000X0.250000X0*%
%ADD24RoundRect,0.150000X0.512500X0.150000X-0.512500X0.150000X-0.512500X-0.150000X0.512500X-0.150000X0*%
%ADD25RoundRect,0.250000X0.475000X-0.250000X0.475000X0.250000X-0.475000X0.250000X-0.475000X-0.250000X0*%
%ADD26RoundRect,0.250000X0.262500X0.450000X-0.262500X0.450000X-0.262500X-0.450000X0.262500X-0.450000X0*%
%ADD27R,3.000000X2.000000*%
%ADD28R,1.300000X0.300000*%
%ADD29RoundRect,0.250000X0.450000X-0.262500X0.450000X0.262500X-0.450000X0.262500X-0.450000X-0.262500X0*%
%ADD30RoundRect,0.225000X-0.225000X-0.375000X0.225000X-0.375000X0.225000X0.375000X-0.225000X0.375000X0*%
G04 APERTURE END LIST*
D10*
%TO.C,TP2*%
X121158000Y-101600000D03*
%TD*%
%TO.C,TP7*%
X147320000Y-150114000D03*
%TD*%
%TO.C,TP5*%
X135636000Y-150114000D03*
%TD*%
%TO.C,TP3*%
X126238000Y-101600000D03*
%TD*%
%TO.C,TP4*%
X153162000Y-150114000D03*
%TD*%
%TO.C,TP6*%
X141478000Y-150114000D03*
%TD*%
%TO.C,TP1*%
X136906000Y-106934000D03*
%TD*%
D11*
%TO.C,C11*%
X132384800Y-94083800D03*
X132384800Y-95633800D03*
%TD*%
D12*
%TO.C,C12*%
X138500700Y-93014800D03*
X136600700Y-93014800D03*
%TD*%
D13*
%TO.C,J4*%
X154694000Y-74128000D03*
X159734000Y-74128000D03*
X154694000Y-76668000D03*
X159734000Y-76668000D03*
X154694000Y-79208000D03*
X159734000Y-79208000D03*
X154694000Y-81748000D03*
X159734000Y-81748000D03*
X154694000Y-84288000D03*
X159734000Y-84288000D03*
X154694000Y-86828000D03*
X159734000Y-86828000D03*
X154694000Y-89368000D03*
X159734000Y-89368000D03*
X154694000Y-91908000D03*
X159734000Y-91908000D03*
X154694000Y-94448000D03*
X159734000Y-94448000D03*
X154694000Y-96988000D03*
X159734000Y-96988000D03*
X154694000Y-99528000D03*
X159734000Y-99528000D03*
X154694000Y-102068000D03*
X159734000Y-102068000D03*
X154694000Y-104608000D03*
X159734000Y-104608000D03*
X154694000Y-107148000D03*
X159734000Y-107148000D03*
X154694000Y-109688000D03*
X159734000Y-109688000D03*
X154694000Y-112228000D03*
X159734000Y-112228000D03*
X154694000Y-114768000D03*
X159734000Y-114768000D03*
X154694000Y-117308000D03*
X159734000Y-117308000D03*
X154694000Y-119848000D03*
X159734000Y-119848000D03*
X154694000Y-122388000D03*
X159734000Y-122388000D03*
%TD*%
D14*
%TO.C,BL-1*%
X175450000Y-66600000D03*
X175450000Y-70200000D03*
X176900000Y-66600000D03*
X176900000Y-70200000D03*
%TD*%
D15*
%TO.C,Q1*%
X124896800Y-75186300D03*
X126796800Y-75186300D03*
X125846800Y-77061300D03*
%TD*%
D12*
%TO.C,C10*%
X122616000Y-90424000D03*
X120716000Y-90424000D03*
%TD*%
D16*
%TO.C,H4*%
X108213600Y-127257800D03*
%TD*%
D12*
%TO.C,C6*%
X122682000Y-86360000D03*
X120782000Y-86360000D03*
%TD*%
D17*
%TO.C,L2*%
X138531600Y-94757200D03*
X138531600Y-96882200D03*
%TD*%
D12*
%TO.C,C2*%
X122677000Y-77978000D03*
X120777000Y-77978000D03*
%TD*%
D18*
%TO.C,D1*%
X131180800Y-79932800D03*
X131180800Y-76632800D03*
%TD*%
D19*
%TO.C,J3*%
X143455000Y-146460000D03*
X143455000Y-141960000D03*
D20*
X146030000Y-142960000D03*
X146030000Y-143460000D03*
X146030000Y-143960000D03*
X146030000Y-144460000D03*
X146030000Y-144960000D03*
X146030000Y-145460000D03*
%TD*%
D16*
%TO.C,H3*%
X108213600Y-69257800D03*
%TD*%
D21*
%TO.C,L1*%
X128894800Y-87930500D03*
X128894800Y-85805500D03*
%TD*%
D22*
%TO.C,D2*%
X134482800Y-71806800D03*
X134482800Y-75106800D03*
%TD*%
D23*
%TO.C,C3*%
X114757200Y-86019600D03*
X114757200Y-87919600D03*
%TD*%
D19*
%TO.C,J1*%
X128014900Y-98889800D03*
X128014900Y-94389800D03*
D20*
X130589900Y-97889800D03*
X130589900Y-97389800D03*
X130589900Y-96889800D03*
X130589900Y-96389800D03*
X130589900Y-95889800D03*
X130589900Y-95389800D03*
%TD*%
D12*
%TO.C,C4*%
X122682000Y-80010000D03*
X120782000Y-80010000D03*
%TD*%
D23*
%TO.C,C9*%
X128894800Y-74284800D03*
X128894800Y-76184800D03*
%TD*%
D14*
%TO.C,BL+1*%
X175450000Y-72250000D03*
X175450000Y-75850000D03*
X176900000Y-72250000D03*
X176900000Y-75850000D03*
%TD*%
D24*
%TO.C,U1*%
X136621100Y-94823200D03*
X136621100Y-95773200D03*
X136621100Y-96723200D03*
X134346100Y-96723200D03*
X134346100Y-95773200D03*
X134346100Y-94823200D03*
%TD*%
D16*
%TO.C,H1*%
X157210000Y-69280000D03*
%TD*%
D12*
%TO.C,C1*%
X122677000Y-75946000D03*
X120777000Y-75946000D03*
%TD*%
D22*
%TO.C,D3*%
X134482800Y-76632800D03*
X134482800Y-79932800D03*
%TD*%
D16*
%TO.C,H2*%
X157213600Y-127257800D03*
%TD*%
D12*
%TO.C,C8*%
X122682000Y-84328000D03*
X120782000Y-84328000D03*
%TD*%
D25*
%TO.C,C13*%
X132232400Y-100706000D03*
X132232400Y-98806000D03*
%TD*%
D26*
%TO.C,R1*%
X111654500Y-75692000D03*
X109829500Y-75692000D03*
%TD*%
D27*
%TO.C,J2*%
X110390000Y-93760000D03*
X110390000Y-78960000D03*
D28*
X112740000Y-80610000D03*
X112740000Y-81110000D03*
X112740000Y-81610000D03*
X112740000Y-82110000D03*
X112740000Y-82610000D03*
X112740000Y-83110000D03*
X112740000Y-83610000D03*
X112740000Y-84110000D03*
X112740000Y-84610000D03*
X112740000Y-85110000D03*
X112740000Y-85610000D03*
X112740000Y-86110000D03*
X112740000Y-86610000D03*
X112740000Y-87110000D03*
X112740000Y-87610000D03*
X112740000Y-88110000D03*
X112740000Y-88610000D03*
X112740000Y-89110000D03*
X112740000Y-89610000D03*
X112740000Y-90110000D03*
X112740000Y-90610000D03*
X112740000Y-91110000D03*
X112740000Y-91610000D03*
X112740000Y-92110000D03*
%TD*%
D12*
%TO.C,C7*%
X122616000Y-92710000D03*
X120716000Y-92710000D03*
%TD*%
D29*
%TO.C,R2*%
X134366000Y-92250900D03*
X134366000Y-90425900D03*
%TD*%
D30*
%TO.C,D4*%
X133986000Y-98806000D03*
X137286000Y-98806000D03*
%TD*%
D12*
%TO.C,C5*%
X122682000Y-82042000D03*
X120782000Y-82042000D03*
%TD*%
M02*
