(footprint "AFC07-S24ECC-00_with_90_deg_display_silkscreen" (version 20211014) (generator pcbnew)
  (layer "F.Cu")
  (tedit 64DF04C0)
  (attr smd)
  (fp_text reference "REF**" (at 0 -1.75 unlocked) (layer "F.SilkS")
    (effects (font (size 1 1) (thickness 0.15)))
    (tstamp 7efe52c7-849a-457d-9282-4b14b5977cfd)
  )
  (fp_text value "AFC07-S24ECC-00" (at 0 5 unlocked) (layer "F.Fab")
    (effects (font (size 1 1) (thickness 0.15)))
    (tstamp 5ce9fb3d-8baf-4e66-abba-9674249b5e7b)
  )
  (fp_text user "Tape Display Here" (at 18.5 -58.5 90 unlocked) (layer "B.SilkS")
    (effects (font (size 5 5) (thickness 0.15)) (justify left mirror))
    (tstamp a451ea43-2d98-48bc-a561-7130f68044ec)
  )
  (fp_text user "${REFERENCE}" (at 0 6.5 unlocked) (layer "F.Fab")
    (effects (font (size 1 1) (thickness 0.15)))
    (tstamp faf61677-95ff-471d-9fae-9fe321aafb8b)
  )
  (fp_rect (start 23 -60) (end -68 17) (layer "B.SilkS") (width 0.12) (fill none) (tstamp 55ef627b-b358-40e8-bba9-8d8d5b51ece1))
  (fp_line (start 8.5 -0.75) (end -8.5 -0.75) (layer "F.SilkS") (width 0.12) (tstamp 53c3dfa0-4629-47d5-b909-4a3f4eb869c5))
  (fp_line (start 8.5 4) (end 8.5 -0.75) (layer "F.SilkS") (width 0.12) (tstamp 59e90f16-96b8-49bc-86de-566bbe3dd75d))
  (fp_line (start -8.5 4) (end 8.5 4) (layer "F.SilkS") (width 0.12) (tstamp cdab9592-9fc5-4cb1-a573-b6e4c01917d9))
  (fp_line (start -8.5 -0.75) (end -8.5 4) (layer "F.SilkS") (width 0.12) (tstamp f239c5a8-dbfe-4237-89fc-56c709be30b1))
  (fp_line (start 8.75 -1) (end 8.75 4.25) (layer "F.CrtYd") (width 0.025) (tstamp 079a9926-fc90-4d79-8aa5-5ff1c6a5c152))
  (fp_line (start -8.75 -1) (end -8.75 4.25) (layer "F.CrtYd") (width 0.025) (tstamp 1e2668cf-bca5-4fe6-9313-10bae1283410))
  (fp_line (start -8.75 -1) (end 8.75 -1) (layer "F.CrtYd") (width 0.025) (tstamp 4b284991-7f7e-48e1-9806-6fdf421bc28d))
  (fp_line (start 8.75 4.25) (end -8.75 4.25) (layer "F.CrtYd") (width 0.025) (tstamp 4fcca4d4-609a-42c4-b8ab-b929ee39a2ae))
  (pad "" smd rect (at 7.4 2.35) (size 2 3) (layers "F.Cu" "F.Paste" "F.Mask") (tstamp 35505c17-306b-4361-9895-a67ced902f2d))
  (pad "" smd rect (at -7.4 2.35) (size 2 3) (layers "F.Cu" "F.Paste" "F.Mask") (tstamp 9a971457-c691-4066-b994-419c780d940d))
  (pad "1" smd rect (at 5.75 0) (size 0.3 1.3) (layers "F.Cu" "F.Paste" "F.Mask") (tstamp 39597e81-f70e-461a-8b54-a3cbec89ae00))
  (pad "2" smd rect (at 5.25 0) (size 0.3 1.3) (layers "F.Cu" "F.Paste" "F.Mask") (tstamp 73265981-a663-420e-888a-cc68bcfa91fd))
  (pad "3" smd rect (at 4.75 0) (size 0.3 1.3) (layers "F.Cu" "F.Paste" "F.Mask") (tstamp 250c8859-53d9-4b16-9e33-bcef2d0d08db))
  (pad "4" smd rect (at 4.25 0) (size 0.3 1.3) (layers "F.Cu" "F.Paste" "F.Mask") (tstamp 561ecb3f-ead7-4771-b6c0-d34cd21c92d3))
  (pad "5" smd rect (at 3.75 0) (size 0.3 1.3) (layers "F.Cu" "F.Paste" "F.Mask") (tstamp b8207972-6e65-4219-8942-8eacaca882e0))
  (pad "6" smd rect (at 3.25 0) (size 0.3 1.3) (layers "F.Cu" "F.Paste" "F.Mask") (tstamp 51ce5234-071a-423f-81eb-848386f1f5dc))
  (pad "7" smd rect (at 2.75 0) (size 0.3 1.3) (layers "F.Cu" "F.Paste" "F.Mask") (tstamp 070b0340-976b-4974-ba01-f7973267eaea))
  (pad "8" smd rect (at 2.25 0) (size 0.3 1.3) (layers "F.Cu" "F.Paste" "F.Mask") (tstamp 15d09f2a-616a-4679-9c4a-51cbcd498c23))
  (pad "9" smd rect (at 1.75 0) (size 0.3 1.3) (layers "F.Cu" "F.Paste" "F.Mask") (tstamp f3628934-f111-4433-a08a-77780e1fa256))
  (pad "10" smd rect (at 1.25 0) (size 0.3 1.3) (layers "F.Cu" "F.Paste" "F.Mask") (tstamp 13f7a552-a646-40e6-b51b-e08ee801d2ce))
  (pad "11" smd rect (at 0.75 0) (size 0.3 1.3) (layers "F.Cu" "F.Paste" "F.Mask") (tstamp 796618ff-adc1-4daf-832e-9d9cc9a2585a))
  (pad "12" smd rect (at 0.25 0) (size 0.3 1.3) (layers "F.Cu" "F.Paste" "F.Mask") (tstamp 0f744dc3-8721-49cc-9c6c-bbc875ac49de))
  (pad "13" smd rect (at -0.25 0) (size 0.3 1.3) (layers "F.Cu" "F.Paste" "F.Mask") (tstamp 4c6335cd-12b0-4110-b591-a416d64018c7))
  (pad "14" smd rect (at -0.75 0) (size 0.3 1.3) (layers "F.Cu" "F.Paste" "F.Mask") (tstamp 4887c61f-5eee-47ed-8575-94bf50340195))
  (pad "15" smd rect (at -1.25 0) (size 0.3 1.3) (layers "F.Cu" "F.Paste" "F.Mask") (tstamp a4ca5fa9-767d-45e5-9124-c1956f32b98a))
  (pad "16" smd rect (at -1.75 0) (size 0.3 1.3) (layers "F.Cu" "F.Paste" "F.Mask") (tstamp f8824121-5c2e-4d31-8731-4a8b3bb87bbc))
  (pad "17" smd rect (at -2.25 0) (size 0.3 1.3) (layers "F.Cu" "F.Paste" "F.Mask") (tstamp 8ee69a29-e666-41b5-8ae6-a4a1a8687d7c))
  (pad "18" smd rect (at -2.75 0) (size 0.3 1.3) (layers "F.Cu" "F.Paste" "F.Mask") (tstamp 0f438ca3-64ee-42a4-ac03-e250d39c13cc))
  (pad "19" smd rect (at -3.25 0) (size 0.3 1.3) (layers "F.Cu" "F.Paste" "F.Mask") (tstamp bbc86d48-5ce4-4ddd-b79b-6c45ad7d510b))
  (pad "20" smd rect (at -3.75 0) (size 0.3 1.3) (layers "F.Cu" "F.Paste" "F.Mask") (tstamp a7acf19a-b646-4516-930d-cc3a712cfb93))
  (pad "21" smd rect (at -4.25 0) (size 0.3 1.3) (layers "F.Cu" "F.Paste" "F.Mask") (tstamp 36d58d7d-a4b8-4f86-acfc-a10a897dba24))
  (pad "22" smd rect (at -4.75 0) (size 0.3 1.3) (layers "F.Cu" "F.Paste" "F.Mask") (tstamp 0bb2bec8-60b9-4621-862e-dd28e83eac02))
  (pad "23" smd rect (at -5.25 0) (size 0.3 1.3) (layers "F.Cu" "F.Paste" "F.Mask") (tstamp 85c1f97c-ff6c-4097-b911-5ccc94f75358))
  (pad "24" smd rect (at -5.75 0) (size 0.3 1.3) (layers "F.Cu" "F.Paste" "F.Mask") (tstamp efd9dcb5-02b4-4da1-9200-ec0e18dda701))
  (model "${KIPRJMOD}/piEreader.3d_shapes/F32Q-1A7H1-11024_with_GDEW042T2.STEP"
    (offset (xyz 0 -5.4 0))
    (scale (xyz 1 1 1))
    (rotate (xyz 90 180 -180))
  )
  (model "${KIPRJMOD}/piEreader-carrier-board.3dshapes/F32Q-1A7H1-11024_with_GDEW042T2.STEP"
    (offset (xyz 0 -5.4 0))
    (scale (xyz 1 1 1))
    (rotate (xyz 90 180 -180))
  )
)
