(footprint "FH34SRJ-6S-0.5SH" (version 20221018) (generator pcbnew)
  (layer "F.Cu")
  (attr smd)
  (fp_text reference "REF**" (at 0 -2.25 unlocked) (layer "F.SilkS")
      (effects (font (size 1 1) (thickness 0.15)))
    (tstamp e399007d-5c56-4589-96a0-60069d837d2d)
  )
  (fp_text value "FH34SRJ-6S-0.5SH" (at 0 1 unlocked) (layer "F.Fab")
      (effects (font (size 1 1) (thickness 0.15)))
    (tstamp ac8713c2-37d9-49e3-aa91-96f70ca2e095)
  )
  (fp_text user "${REFERENCE}" (at 0 2.5 unlocked) (layer "F.Fab")
      (effects (font (size 1 1) (thickness 0.15)))
    (tstamp 16922302-725c-4eda-9268-e89298e8e613)
  )
  (fp_line (start -2.56 -0.44) (end -2.56 3.08)
    (stroke (width 0.12) (type default)) (layer "F.SilkS") (tstamp 4aef1fcc-511b-49b7-b6e3-cd20e46037b5))
  (fp_line (start -2.56 3.08) (end 2.56 3.08)
    (stroke (width 0.12) (type default)) (layer "F.SilkS") (tstamp ff5a8bb4-f2c3-4e70-96a0-1ca1b0ca41a0))
  (fp_line (start -1.25 -0.6) (end -1.25 -0.6)
    (stroke (width 0.12) (type default)) (layer "F.SilkS") (tstamp 3b2d8744-b32d-4d93-b881-e0b9d2218918))
  (fp_line (start 2.56 -0.44) (end -2.56 -0.44)
    (stroke (width 0.12) (type default)) (layer "F.SilkS") (tstamp 9384b77c-9d5f-465f-9458-1129f985d331))
  (fp_line (start 2.56 3.08) (end 2.56 -0.44)
    (stroke (width 0.12) (type default)) (layer "F.SilkS") (tstamp 97a107d9-9b70-42c3-8131-7ad770676e0a))
  (fp_line (start -2.7 -0.6) (end 2.7 -0.6)
    (stroke (width 0.05) (type default)) (layer "F.CrtYd") (tstamp c18b2462-104f-45f2-8319-07443df25d23))
  (fp_line (start -2.7 3.225) (end -2.7 -0.6)
    (stroke (width 0.05) (type default)) (layer "F.CrtYd") (tstamp 6c94e4d3-7972-42ff-80ba-83d7e0917085))
  (fp_line (start -2.7 3.225) (end 2.7 3.225)
    (stroke (width 0.05) (type default)) (layer "F.CrtYd") (tstamp 191bd3d5-6cb9-48f6-a695-13395b734fe2))
  (fp_line (start 2.7 3.225) (end 2.7 -0.6)
    (stroke (width 0.05) (type default)) (layer "F.CrtYd") (tstamp a26144cc-b098-46ff-888f-16c0330251b1))
  (pad "" smd rect (at -2.25 2.575) (size 0.4 0.8) (layers "F.Cu" "F.Paste" "F.Mask")
    (thermal_bridge_angle 45) (tstamp d8180163-93b7-4110-95b5-d29988c48379))
  (pad "" smd rect (at 2.25 2.575) (size 0.4 0.8) (layers "F.Cu" "F.Paste" "F.Mask")
    (thermal_bridge_angle 45) (tstamp 7441577a-1270-4e86-860b-15f0b9b28d2b))
  (pad "1" smd rect (at -1.25 0) (size 0.25 0.65) (layers "F.Cu" "F.Paste" "F.Mask")
    (thermal_bridge_angle 45) (tstamp 2ff6beff-d314-4c1a-9c7d-a2c532f06ddf))
  (pad "2" smd rect (at -0.75 0) (size 0.25 0.65) (layers "F.Cu" "F.Paste" "F.Mask")
    (thermal_bridge_angle 45) (tstamp 38667463-77b9-4d72-ad6d-d1f51b1275e6))
  (pad "3" smd rect (at -0.25 0) (size 0.25 0.65) (layers "F.Cu" "F.Paste" "F.Mask")
    (thermal_bridge_angle 45) (tstamp 93c0d57f-40ec-49bd-a21d-e7efd9b11901))
  (pad "4" smd rect (at 0.25 0) (size 0.25 0.65) (layers "F.Cu" "F.Paste" "F.Mask")
    (thermal_bridge_angle 45) (tstamp 7f7dc520-9b4e-4571-a635-87b5ba8f7632))
  (pad "5" smd rect (at 0.75 0) (size 0.25 0.65) (layers "F.Cu" "F.Paste" "F.Mask")
    (thermal_bridge_angle 45) (tstamp ac6d24f6-b7ea-46db-b96e-aa14a398d7ef))
  (pad "6" smd rect (at 1.25 0) (size 0.25 0.65) (layers "F.Cu" "F.Paste" "F.Mask")
    (thermal_bridge_angle 45) (tstamp c04f5712-ba1d-4fca-a06d-b046809b275c))
  (model "${KICAD6_3DMODEL_DIR}/Connector_FFC-FPC.3dshapes/Hirose_FH12-6S-0.5SH_1x06-1MP_P0.50mm_Horizontal.wrl"
    (offset (xyz 0 -1.695 0))
    (scale (xyz 1 1 1))
    (rotate (xyz 0 0 0))
  )
)
